{
  "entities": [
    {
      "data": [
        {
        }
      ],
      "sectionStructure": {
        "columns": [
          {
            "code": "CO_ACT_PROD",
            "displayLabel": "Please select organization's activities (Products) which are appropriate to describe your organization. Do not include outsourced activities.",
            "dataType": "string",
            "questionType": "checkboxes",
            "validations": [],
            "options": {
              "items": [
                {
                  "value": "1",
                  "displayName": "Basic Research & Development"
                },
                {
                  "value": "2",
                  "displayName": "Applied Research & Development"
                },
                {
                  "value": "3",
                  "displayName": "Engineering"
                },
                {
                  "value": "4",
                  "displayName": "Procurement / Inbound Logistic"
                },
                {
                  "value": "5",
                  "displayName": "Production"
                },
                {
                  "value": "6",
                  "displayName": "Application / Assembly"
                },
                {
                  "value": "7",
                  "displayName": "Marketing"
                },
                {
                  "value": "8",
                  "displayName": "Sales"
                },
                {
                  "value": "9",
                  "displayName": "Distribution"
                },
                {
                  "value": "10",
                  "displayName": "Service"
                }
              ]
            }
          }
        ]
      },
      "otherSectionsData": {},
      "contextData": {
        "campaignId": "597b474bfe305700157895c0",
        "companyId": "59f87a76e4e3784c56af9bc1",
        "companyName": "MB_INDUSTRIES",
        "sectionId": "CD_000",
        "grpCode": "",
        "cpyCode": "",
        "ctryCode": "PL",
        "orgSize": null,
        "uniqueIdColumnCode": "YOUR_EEID",
        "industry": {
          "superSector": "CG",
          "sector": "101",
          "subSector": "2680"
        }
      }
    }
  ]
}