city,COUNTRY_CODE,YOUR_EEID,CompanyNames,CountryName
CityName,COUNTRY_Name,EmployeeID,CompayName,CountryName
city21,COUNTRY_CODE21,10000001,KFC1,US1
city31,COUNTRY_CODE31,10000002,KFC2,US2
city41,COUNTRY_CODE41,10000003,KFC3,US3
city51,COUNTRY_CODE51,10000004,KFC4,US4
city61,COUNTRY_CODE61,10000005,KFC5,US5
city71,COUNTRY_CODE71,10000006,KFC6,US6
city81,COUNTRY_CODE81,10000007,KFC7,US7
city91,COUNTRY_CODE91,10000008,KFC8,US8
