{
  "entities": [
    {
      "data": [
        {
          "$$id": "5a167db43abd0c72d634dcb7",
          "CD_475": "",
          "CD_471": "",
          "CD_467": "",
          "CD_073": "",
          "CD_071": "",
          "CD_045": "",
          "CD_044": "",
          "CD_043": "",
          "CD_251": "",
          "CD_248": "",
          "CD_025": "",
          "VOL_OPBUD": "",
          "VOL_CURR": "",
          "ORG_OWN": "",
          "ORG_TYPE": "",
          "CO_ACT_PROD": []
        }
      ],
      "sectionStructure": {
        "columns": [
          {
            "code": "$$id",
            "displayLabel": "correlation id",
            "dataType": "string",
            "validations": []
          },
          {
            "code": "ORG_TYPE",
            "displayLabel": "What is your Organization Type?",
            "dataType": "string",
            "questionType": "radio_buttons",
            "validations": [],
            "options": {
              "items": [
                {
                  "value": "10",
                  "displayName": "Parent Company / Independent Company / Corporate"
                },
                {
                  "value": "20",
                  "displayName": "Subsidiary"
                },
                {
                  "value": "30",
                  "displayName": "Multi-Profit Center (Group)"
                },
                {
                  "value": "40",
                  "displayName": "Division"
                },
                {
                  "value": "NA",
                  "displayName": "Not applicable"
                }
              ]
            }
          },
          {
            "code": "ORG_OWN",
            "displayLabel": "Indicate the Organization Ownership type",
            "dataType": "string",
            "questionType": "radio_buttons",
            "validations": [],
            "options": {
              "items": [
                {
                  "value": "10",
                  "displayName": "Publicly Traded"
                },
                {
                  "value": "20",
                  "displayName": "Privately Owned Organization"
                },
                {
                  "value": "50",
                  "displayName": "Not-for-Profit"
                },
                {
                  "value": "40",
                  "displayName": "Joint Venture"
                },
                {
                  "value": "30",
                  "displayName": "State-Owned Enterprise (Crown Corporation)"
                },
                {
                  "value": "NA",
                  "displayName": "Not applicable"
                }
              ]
            }
          },
          {
            "code": "VOL_CURR",
            "displayLabel": "Currency for monetary values below",
            "dataType": "string",
            "questionType": "dropdown",
            "validations": [],
            "options": {
              "items": [
                {
                  "value": "AED",
                  "displayName": "AED"
                },
                {
                  "value": "AMD",
                  "displayName": "AMD"
                },
                {
                  "value": "ARS",
                  "displayName": "ARS"
                },
                {
                  "value": "AUD",
                  "displayName": "AUD"
                },
                {
                  "value": "AZN",
                  "displayName": "AZN"
                },
                {
                  "value": "BAM",
                  "displayName": "BAM"
                },
                {
                  "value": "BGN",
                  "displayName": "BGN"
                },
                {
                  "value": "BHD",
                  "displayName": "BHD"
                },
                {
                  "value": "BRL",
                  "displayName": "BRL"
                },
                {
                  "value": "BYR",
                  "displayName": "BYR"
                },
                {
                  "value": "CAD",
                  "displayName": "CAD"
                },
                {
                  "value": "CHF",
                  "displayName": "CHF"
                },
                {
                  "value": "CLP",
                  "displayName": "CLP"
                },
                {
                  "value": "CNY",
                  "displayName": "CNY"
                },
                {
                  "value": "COP",
                  "displayName": "COP"
                },
                {
                  "value": "CRC",
                  "displayName": "CRC"
                },
                {
                  "value": "CZK",
                  "displayName": "CZK"
                },
                {
                  "value": "DKK",
                  "displayName": "DKK"
                },
                {
                  "value": "DZD",
                  "displayName": "DZD"
                },
                {
                  "value": "EEK",
                  "displayName": "EEK"
                },
                {
                  "value": "EGP",
                  "displayName": "EGP"
                },
                {
                  "value": "EUR",
                  "displayName": "EUR"
                },
                {
                  "value": "GBP",
                  "displayName": "GBP"
                },
                {
                  "value": "GEL",
                  "displayName": "GEL"
                },
                {
                  "value": "GTQ",
                  "displayName": "GTQ"
                },
                {
                  "value": "HKD",
                  "displayName": "HKD"
                },
                {
                  "value": "HRK",
                  "displayName": "HRK"
                },
                {
                  "value": "HUF",
                  "displayName": "HUF"
                },
                {
                  "value": "IDR",
                  "displayName": "IDR"
                },
                {
                  "value": "ILS",
                  "displayName": "ILS"
                },
                {
                  "value": "INR",
                  "displayName": "INR"
                },
                {
                  "value": "IRR",
                  "displayName": "IRR"
                },
                {
                  "value": "JPY",
                  "displayName": "JPY"
                },
                {
                  "value": "KRW",
                  "displayName": "KRW"
                },
                {
                  "value": "KWD",
                  "displayName": "KWD"
                },
                {
                  "value": "KZT",
                  "displayName": "KZT"
                },
                {
                  "value": "LTL",
                  "displayName": "LTL"
                },
                {
                  "value": "LVL",
                  "displayName": "LVL"
                },
                {
                  "value": "LYD",
                  "displayName": "LYD"
                },
                {
                  "value": "MAD",
                  "displayName": "MAD"
                },
                {
                  "value": "MDL",
                  "displayName": "MDL"
                },
                {
                  "value": "MKD",
                  "displayName": "MKD"
                },
                {
                  "value": "MXN",
                  "displayName": "MXN"
                },
                {
                  "value": "MYR",
                  "displayName": "MYR"
                },
                {
                  "value": "NGN",
                  "displayName": "NGN"
                },
                {
                  "value": "NOK",
                  "displayName": "NOK"
                },
                {
                  "value": "NZD",
                  "displayName": "NZD"
                },
                {
                  "value": "OMR",
                  "displayName": "OMR"
                },
                {
                  "value": "PAB",
                  "displayName": "PAB"
                },
                {
                  "value": "PEN",
                  "displayName": "PEN"
                },
                {
                  "value": "PHP",
                  "displayName": "PHP"
                },
                {
                  "value": "PKR",
                  "displayName": "PKR"
                },
                {
                  "value": "PLN",
                  "displayName": "PLN"
                },
                {
                  "value": "QAR",
                  "displayName": "QAR"
                },
                {
                  "value": "RON",
                  "displayName": "RON"
                },
                {
                  "value": "RSD",
                  "displayName": "RSD"
                },
                {
                  "value": "RUB",
                  "displayName": "RUB"
                },
                {
                  "value": "SAR",
                  "displayName": "SAR"
                },
                {
                  "value": "SEK",
                  "displayName": "SEK"
                },
                {
                  "value": "SGD",
                  "displayName": "SGD"
                },
                {
                  "value": "SVC",
                  "displayName": "SVC"
                },
                {
                  "value": "THB",
                  "displayName": "THB"
                },
                {
                  "value": "TND",
                  "displayName": "TND"
                },
                {
                  "value": "TRY",
                  "displayName": "TRY"
                },
                {
                  "value": "TWD",
                  "displayName": "TWD"
                },
                {
                  "value": "UAH",
                  "displayName": "UAH"
                },
                {
                  "value": "USD",
                  "displayName": "USD"
                },
                {
                  "value": "UYU",
                  "displayName": "UYU"
                },
                {
                  "value": "UZS",
                  "displayName": "UZS"
                },
                {
                  "value": "VEF",
                  "displayName": "VEF"
                },
                {
                  "value": "VND",
                  "displayName": "VND"
                },
                {
                  "value": "YER",
                  "displayName": "YER"
                },
                {
                  "value": "ZAR",
                  "displayName": "ZAR"
                },
                {
                  "value": "NA",
                  "displayName": "Not applicable"
                }
              ]
            }
          },
          {
            "code": "CD_006A",
            "displayLabel": "Worldwide Net Sales Revenue for your Parent Organization ",
            "dataType": "double",
            "questionType": "double",
            "validations": [
              {
                "message": "Worldwide Net Sales Revenue for your Parent Organization  is required",
                "expression": "ISBLANK(this.CD_006A);",
                "validationType": "expression",
                "_id": "5a0df2d83c44c100158c920f",
                "category": "input_data",
                "dependentColumns": [],
                "errorType": "ERROR"
              }
            ]
          },
          {
            "code": "CD_006B",
            "displayLabel": "Organization's total worldwide number of full-time employees.",
            "dataType": "double",
            "questionType": "double",
            "validations": [
              {
                "message": "Organization's total worldwide number of full-time employees. is required",
                "expression": "ISBLANK(this.CD_006B);",
                "validationType": "expression",
                "_id": "5a0df2d83c44c100158c9210",
                "category": "input_data",
                "dependentColumns": [],
                "errorType": "ERROR"
              }
            ]
          },
          {
            "code": "VOL_REV",
            "displayLabel": "Net Sales Revenue",
            "dataType": "double",
            "questionType": "double",
            "validations": [
              {
                "parameter": "",
                "clientInstructions": "Please review and Update",
                "message": "Net Revenue and Net Sales Revenue Amount - Please review as the provided values are the same.",
                "expression": "this.VOL_NET_REV == this.VOL_REV;",
                "errorType": "ALERT",
                "validationType": "expression",
                "_id": "5a0df2d93c44c100158c921d",
                "category": "input_data",
                "dependentColumns": []
              },
              {
                "parameter": "",
                "clientInstructions": "Please review and Update.",
                "message": "Local Office Net Sales and Local Office Operating Expenses / Budget values have been provided for both.",
                "expression": "ISNOTBLANK(this.VOL_REV) AND ISNOTBLANK(this.VOL_OPBUD);",
                "errorType": "ALERT",
                "validationType": "expression",
                "_id": "5a0df2d93c44c100158c921c",
                "category": "input_data",
                "dependentColumns": []
              }
            ]
          },
          {
            "code": "VOL_OPBUD",
            "displayLabel": "Operating Expenses / Budget",
            "dataType": "double",
            "questionType": "double",
            "validations": []
          },
          {
            "code": "NUM_EMP",
            "displayLabel": "Full-time equivalents (FTEs) for most recent completed fiscal year (2017):",
            "dataType": "double",
            "questionType": "double",
            "validations": [
              {
                "message": "Full-time equivalents (FTEs) for most recent completed fiscal year (2017): is required",
                "expression": "ISBLANK(this.NUM_EMP);",
                "validationType": "expression",
                "_id": "5a0df2d93c44c100158c9217",
                "category": "input_data",
                "dependentColumns": [],
                "errorType": "ERROR"
              }
            ]
          },
          {
            "code": "CD_024",
            "displayLabel": "Full-time equivalents (FTEs) for prior fiscal year (2016):",
            "dataType": "double",
            "questionType": "double",
            "validations": [
              {
                "message": "Full-time equivalents (FTEs) for prior fiscal year (2016): is required",
                "expression": "ISBLANK(this.CD_024);",
                "validationType": "expression",
                "_id": "5a0df2d83c44c100158c9214",
                "category": "input_data",
                "dependentColumns": [],
                "errorType": "ERROR"
              }
            ]
          },
          {
            "code": "CD_025",
            "displayLabel": "Budgeted Full-time equivalents (FTEs) for current fiscal year (2018):",
            "dataType": "double",
            "questionType": "double",
            "validations": []
          },
          {
            "code": "CO_ACT_PROD",
            "displayLabel": "Please select organization's activities (Products) which are appropriate to describe your organization. Do not include outsourced activities.",
            "dataType": "string",
            "questionType": "checkboxes",
            "validations": [
              {
                "message": "Please select organization's activities (Products) which are appropriate to describe your organization. Do not include outsourced activities. is required",
                "expression": "ISBLANK(this.CO_ACT_PROD);",
                "isFatal": false,
                "validationType": "expression",
                "_id": "5a11e9815524e90015bb2a7b",
                "category": "input_data",
                "dependentColumns": [],
                "errorType": "ERROR"
              }
            ],
            "options": {
              "items": [
                {
                  "value": "Basic Research & Development",
                  "displayName": "Basic Research & Development"
                },
                {
                  "value": "Applied Research & Development",
                  "displayName": "Applied Research & Development"
                },
                {
                  "value": "Engineering",
                  "displayName": "Engineering"
                },
                {
                  "value": "Procurement / Inbound Logistic",
                  "displayName": "Procurement / Inbound Logistic"
                },
                {
                  "value": "Production",
                  "displayName": "Production"
                },
                {
                  "value": "Application / Assembly",
                  "displayName": "Application / Assembly"
                },
                {
                  "value": "Marketing",
                  "displayName": "Marketing"
                },
                {
                  "value": "Sales",
                  "displayName": "Sales"
                },
                {
                  "value": "Distribution",
                  "displayName": "Distribution"
                },
                {
                  "value": "Service",
                  "displayName": "Service"
                }
              ]
            }
          },
          {
            "code": "CD_248",
            "displayLabel": "Does the organization use a job evaluation system?",
            "dataType": "string",
            "questionType": "radio_buttons",
            "validations": [],
            "options": {
              "items": [
                {
                  "value": "Y",
                  "displayName": "Yes"
                },
                {
                  "value": "N",
                  "displayName": "No"
                },
                {
                  "value": "NA",
                  "displayName": "Not applicable"
                }
              ]
            }
          },
          {
            "code": "CD_251",
            "displayLabel": "Is your company a licensed user of the Mercer IPE system (International Position Evaluation)?",
            "dataType": "string",
            "questionType": "radio_buttons",
            "validations": [],
            "options": {
              "items": [
                {
                  "value": "Y",
                  "displayName": "Yes"
                },
                {
                  "value": "N",
                  "displayName": "No"
                },
                {
                  "value": "NA",
                  "displayName": "Not applicable"
                }
              ]
            }
          },
          {
            "code": "CD_043",
            "displayLabel": "Expatriates on expatriate (home-based/international) contracts",
            "dataType": "double",
            "questionType": "percentage",
            "validations": []
          },
          {
            "code": "CD_044",
            "displayLabel": "Expatriates on localized/local+ packages",
            "dataType": "double",
            "questionType": "percentage",
            "validations": []
          },
          {
            "code": "CD_045",
            "displayLabel": "Local national employees",
            "dataType": "double",
            "questionType": "percentage",
            "validations": []
          },
          {
            "code": "CD_046",
            "displayLabel": "Total",
            "dataType": "double",
            "questionType": "percentage",
            "validations": [
              {
                "message": " Total is required",
                "expression": "ISBLANK(this.CD_046.EXEC2);",
                "validationType": "expression",
                "_id": "5a0df2d83c44c100158c9215",
                "category": "input_data",
                "dependentColumns": [],
                "errorType": "ERROR",
                "dimension": "EXEC2"
              },
              {
                "message": " Total is required",
                "expression": "ISBLANK(this.CD_046.MGMT2);",
                "validationType": "expression",
                "_id": "5a0df2d83c44c100158c9215",
                "category": "input_data",
                "dependentColumns": [],
                "errorType": "ERROR",
                "dimension": "MGMT2"
              },
              {
                "message": " Total is required",
                "expression": "ISBLANK(this.CD_046.PROF2);",
                "validationType": "expression",
                "_id": "5a0df2d83c44c100158c9215",
                "category": "input_data",
                "dependentColumns": [],
                "errorType": "ERROR",
                "dimension": "PROF2"
              },
              {
                "message": " Total is required",
                "expression": "ISBLANK(this.CD_046.OTHER2);",
                "validationType": "expression",
                "_id": "5a0df2d83c44c100158c9215",
                "category": "input_data",
                "dependentColumns": [],
                "errorType": "ERROR",
                "dimension": "OTHER2"
              }
            ]
          },
          {
            "code": "CD_071",
            "displayLabel": "Last year voluntary turnover as a percentage of total headcount",
            "dataType": "double",
            "questionType": "percentage",
            "validations": []
          },
          {
            "code": "CD_073",
            "displayLabel": "Last year involuntary turnover as a percentage of total headcount",
            "dataType": "double",
            "questionType": "percentage",
            "validations": []
          },
          {
            "code": "CD_467",
            "displayLabel": "Please select family",
            "dataType": "string",
            "questionType": "dropdown",
            "validations": [],
            "options": {
              "items": [
                {
                  "value": "1",
                  "displayName": "Administration, Facilities & Secretarial"
                },
                {
                  "value": "2",
                  "displayName": "Asset/Investment Management"
                },
                {
                  "value": "3",
                  "displayName": "Capital Markets/Investment Banking"
                },
                {
                  "value": "4",
                  "displayName": "Communications & Corporate Affairs"
                },
                {
                  "value": "5",
                  "displayName": "Construction"
                },
                {
                  "value": "6",
                  "displayName": "Consumer & Commercial Banking"
                },
                {
                  "value": "7",
                  "displayName": "Creative & Design"
                },
                {
                  "value": "8",
                  "displayName": "Customer Service & Contact Center Operations"
                },
                {
                  "value": "9",
                  "displayName": "Data Analytics/Warehousing & Business Intelligence"
                },
                {
                  "value": "10",
                  "displayName": "Education"
                },
                {
                  "value": "11",
                  "displayName": "Engineering & Science"
                },
                {
                  "value": "12",
                  "displayName": "Finance"
                },
                {
                  "value": "13",
                  "displayName": "General Management"
                },
                {
                  "value": "14",
                  "displayName": "Healthcare/Pharmacy Services"
                },
                {
                  "value": "15",
                  "displayName": "Hospitality (Food Service & Lodging)"
                },
                {
                  "value": "16",
                  "displayName": "Human Resources"
                },
                {
                  "value": "17",
                  "displayName": "Insurance"
                },
                {
                  "value": "18",
                  "displayName": "IT, Telecom & Internet"
                },
                {
                  "value": "19",
                  "displayName": "Legal, Compliance & Audit"
                },
                {
                  "value": "20",
                  "displayName": "Media"
                },
                {
                  "value": "21",
                  "displayName": "Production & Skilled Trades"
                },
                {
                  "value": "22",
                  "displayName": "Project/Program Management"
                },
                {
                  "value": "23",
                  "displayName": "Quality Management"
                },
                {
                  "value": "24",
                  "displayName": "Real Estate"
                },
                {
                  "value": "25",
                  "displayName": "Retail"
                },
                {
                  "value": "26",
                  "displayName": "Sales, Marketing & Product Management"
                },
                {
                  "value": "27",
                  "displayName": "Supply Chain"
                },
                {
                  "value": "28",
                  "displayName": "Trading & Dealing"
                },
                {
                  "value": "NA",
                  "displayName": "Not applicable"
                }
              ]
            }
          },
          {
            "code": "CD_471",
            "displayLabel": "Please select family",
            "dataType": "string",
            "questionType": "dropdown",
            "validations": [],
            "options": {
              "items": [
                {
                  "value": "1",
                  "displayName": "Administration, Facilities & Secretarial"
                },
                {
                  "value": "2",
                  "displayName": "Asset/Investment Management"
                },
                {
                  "value": "3",
                  "displayName": "Capital Markets/Investment Banking"
                },
                {
                  "value": "4",
                  "displayName": "Communications & Corporate Affairs"
                },
                {
                  "value": "5",
                  "displayName": "Construction"
                },
                {
                  "value": "6",
                  "displayName": "Consumer & Commercial Banking"
                },
                {
                  "value": "7",
                  "displayName": "Creative & Design"
                },
                {
                  "value": "8",
                  "displayName": "Customer Service & Contact Center Operations"
                },
                {
                  "value": "9",
                  "displayName": "Data Analytics/Warehousing & Business Intelligence"
                },
                {
                  "value": "10",
                  "displayName": "Education"
                },
                {
                  "value": "11",
                  "displayName": "Engineering & Science"
                },
                {
                  "value": "12",
                  "displayName": "Finance"
                },
                {
                  "value": "13",
                  "displayName": "General Management"
                },
                {
                  "value": "14",
                  "displayName": "Healthcare/Pharmacy Services"
                },
                {
                  "value": "15",
                  "displayName": "Hospitality (Food Service & Lodging)"
                },
                {
                  "value": "16",
                  "displayName": "Human Resources"
                },
                {
                  "value": "17",
                  "displayName": "Insurance"
                },
                {
                  "value": "18",
                  "displayName": "IT, Telecom & Internet"
                },
                {
                  "value": "19",
                  "displayName": "Legal, Compliance & Audit"
                },
                {
                  "value": "20",
                  "displayName": "Media"
                },
                {
                  "value": "21",
                  "displayName": "Production & Skilled Trades"
                },
                {
                  "value": "22",
                  "displayName": "Project/Program Management"
                },
                {
                  "value": "23",
                  "displayName": "Quality Management"
                },
                {
                  "value": "24",
                  "displayName": "Real Estate"
                },
                {
                  "value": "25",
                  "displayName": "Retail"
                },
                {
                  "value": "26",
                  "displayName": "Sales, Marketing & Product Management"
                },
                {
                  "value": "27",
                  "displayName": "Supply Chain"
                },
                {
                  "value": "28",
                  "displayName": "Trading & Dealing"
                },
                {
                  "value": "NA",
                  "displayName": "Not applicable"
                }
              ]
            }
          },
          {
            "code": "CD_475",
            "displayLabel": "Please select family",
            "dataType": "string",
            "questionType": "dropdown",
            "validations": [],
            "options": {
              "items": [
                {
                  "value": "1",
                  "displayName": "Administration, Facilities & Secretarial"
                },
                {
                  "value": "2",
                  "displayName": "Asset/Investment Management"
                },
                {
                  "value": "3",
                  "displayName": "Capital Markets/Investment Banking"
                },
                {
                  "value": "4",
                  "displayName": "Communications & Corporate Affairs"
                },
                {
                  "value": "5",
                  "displayName": "Construction"
                },
                {
                  "value": "6",
                  "displayName": "Consumer & Commercial Banking"
                },
                {
                  "value": "7",
                  "displayName": "Creative & Design"
                },
                {
                  "value": "8",
                  "displayName": "Customer Service & Contact Center Operations"
                },
                {
                  "value": "9",
                  "displayName": "Data Analytics/Warehousing & Business Intelligence"
                },
                {
                  "value": "10",
                  "displayName": "Education"
                },
                {
                  "value": "11",
                  "displayName": "Engineering & Science"
                },
                {
                  "value": "12",
                  "displayName": "Finance"
                },
                {
                  "value": "13",
                  "displayName": "General Management"
                },
                {
                  "value": "14",
                  "displayName": "Healthcare/Pharmacy Services"
                },
                {
                  "value": "15",
                  "displayName": "Hospitality (Food Service & Lodging)"
                },
                {
                  "value": "16",
                  "displayName": "Human Resources"
                },
                {
                  "value": "17",
                  "displayName": "Insurance"
                },
                {
                  "value": "18",
                  "displayName": "IT, Telecom & Internet"
                },
                {
                  "value": "19",
                  "displayName": "Legal, Compliance & Audit"
                },
                {
                  "value": "20",
                  "displayName": "Media"
                },
                {
                  "value": "21",
                  "displayName": "Production & Skilled Trades"
                },
                {
                  "value": "22",
                  "displayName": "Project/Program Management"
                },
                {
                  "value": "23",
                  "displayName": "Quality Management"
                },
                {
                  "value": "24",
                  "displayName": "Real Estate"
                },
                {
                  "value": "25",
                  "displayName": "Retail"
                },
                {
                  "value": "26",
                  "displayName": "Sales, Marketing & Product Management"
                },
                {
                  "value": "27",
                  "displayName": "Supply Chain"
                },
                {
                  "value": "28",
                  "displayName": "Trading & Dealing"
                },
                {
                  "value": "NA",
                  "displayName": "Not applicable"
                }
              ]
            }
          }
        ]
      },
      "otherSectionsData": {},
      "contextData": {
        "campaignId": "597b474bfe305700157895c0",
        "companyId": "5a1448027eb0b185b1e6b628",
        "companyName": "ABC",
        "sectionId": "CD_000",
        "grpCode": "",
        "cpyCode": "",
        "ctryCode": "GB",
        "orgSize": null,
        "uniqueIdColumnCode": "YOUR_EEID",
        "industry": {
          "superSector": "CG",
          "sector": "101",
          "subSector": "2670"
        }
      }
    }
  ]
}