{
    "messageKey": "mosaic-error-message.variable_not_found",
    "messageParams": {
        "varName": "LPALL_399A.EE_group_13LATAM_02",
        "expression": "XSUM(\"EMP_221\",\"\",\"\") == 0 AND this.LPALL_399A.EE_group_13LATAM_02 == \"Y\";"
    }
}