timeStamp,elapsed,label,responseCode,threadName,success,bytes,grpThreads,allThreads,Latency,SampleCount,ErrorCount,Hostname,Connect
1519057887604,5666,FileUpload F1_PE-8157_Ignore,200,Thread Group_Prod1 1-1,false,6313,1,1,5664,1,1,infpu013335,444
1519057893333,8605,FileUpload F1_PE-8110_ErrorCell,200,Thread Group_Prod1 1-1,true,1571,1,1,8605,1,0,infpu013335,298
1519057901980,4069,FileUpload F2_PE-8110_ErrorCell_Ignore,422,Thread Group_Prod1 1-1,false,650879,1,1,2520,1,1,infpu013335,248
1519057906081,2575,FileUpload F3_PE-8110_ErrorCell_Ignore,400,Thread Group_Prod1 1-1,false,385,1,1,2575,1,1,infpu013335,245
1519057908679,820,FileUpload F4_PE-5678_SequentialWithOtherValidations,200,Thread Group_Prod1 1-1,true,5471,1,1,819,1,0,infpu013335,289
1519057909527,290,NoFileUpload N1_PE-5678_LOOK_UP_CHECK1,200,Thread Group_Prod1 1-1,false,1072,1,1,290,1,1,infpu013335,0
1519057909834,267,NoFileUpload N1_PE-5678_SequentialWithOtherValidations,200,Thread Group_Prod1 1-1,true,994,1,1,267,1,0,infpu013335,0
1519057910122,1097,NoFileUpload N2_PE-5678_SequentialWithOtherValidations,200,Thread Group_Prod1 1-1,true,959,1,1,1097,1,0,infpu013335,0
1519057911233,47914,"NoFileUpload_Null Validation_crossSectionChecks_LPALL_566 is """"",200,Thread Group_Prod1 1-1,true,6764,1,1,47912,1,0,infpu013335,256
1519057959181,1894,NoFileUpload_Null Validation_crossSectionChecks_LPALL_566 is null,200,Thread Group_Prod1 1-1,true,6760,1,1,1894,1,0,infpu013335,334
1519057961087,301,"NoFileUpload_Null Validation_crossSectionChecks_LPALL_566 is ""null""",200,Thread Group_Prod1 1-1,true,6908,1,1,300,1,0,infpu013335,0
1519057961399,1799,"NoFileUpload_Null Validation_crossSectionChecks_LPALL_566 is ""   """,200,Thread Group_Prod1 1-1,true,6767,1,1,1798,1,0,infpu013335,247
1519057963220,255,NoFileUpload N3_PE-7172MDA,200,Thread Group_Prod1 1-1,true,664,1,1,255,1,0,infpu013335,0
1519057963512,908,FileUpload F5_PE7172_Fix,200,Thread Group_Prod1 1-1,true,4873,1,1,906,1,0,infpu013335,271
1519057964432,494,NoFileUpload N4_PE-8032MDA,200,Thread Group_Prod1 1-1,true,664,1,1,494,1,0,infpu013335,0
1519057964972,790,NoFileUpload N5_PE-8070,200,Thread Group_Prod1 1-1,true,881,1,1,790,1,0,infpu013335,0
1519057965781,1258,NoFileUpload N73_PE5668 T2_Temp,200,Thread Group_Prod1 1-1,true,609,1,1,1257,1,0,infpu013335,251
1519057967063,258,NoFileUpload N74_PE5668 T3_Temp,200,Thread Group_Prod1 1-1,true,753,1,1,258,1,0,infpu013335,0
1519057967333,258,NoFileUpload N75_PE5668 T4_Temp,200,Thread Group_Prod1 1-1,true,706,1,1,258,1,0,infpu013335,0
1519057967614,261,NoFileUpload N76_PE5668 T5_Temp,200,Thread Group_Prod1 1-1,true,720,1,1,260,1,0,infpu013335,0
1519057967905,5225,NoFileUpload N78_PE5668 T7_Temp,200,Thread Group_Prod1 1-1,true,705,1,1,5224,1,0,infpu013335,259
1519057973147,1299,NoFileUpload N79_PE5668 T8_Temp,200,Thread Group_Prod1 1-1,true,607,1,1,1299,1,0,infpu013335,260
1519057974467,2048,FileUpload F6_PE-7257_US_CSV_Shuffle,200,Thread Group_Prod1 1-1,false,5517,1,1,2047,1,1,infpu013335,0
1519057976538,11776,FileUpload F7_PE-7257_US_Excel_Shuffle,200,Thread Group_Prod1 1-1,false,5699,1,1,11776,1,1,infpu013335,248
1519057988370,1876,NoFileUpload N6_PE7978,200,Thread Group_Prod1 1-1,true,6632,1,1,1874,1,0,infpu013335,249
1519057990262,255,NoFileUpload N7_PE7954,200,Thread Group_Prod1 1-1,true,727,1,1,255,1,0,infpu013335,0
1519057990527,1235,NoFileUpload N77_PE5668 T6,200,Thread Group_Prod1 1-1,true,716,1,1,1235,1,0,infpu013335,254
1519057991782,289,FileUpload F8_PE7999_Ignore since files are identical,422,Thread Group_Prod1 1-1,false,1282,1,1,289,1,1,infpu013335,0
1519057992083,251,NoFileUpload N8_ PE7795,200,Thread Group_Prod1 1-1,true,717,1,1,251,1,0,infpu013335,0
1519057992350,286,NoFileUpload N9_PE7046_AU_Comp2,200,Thread Group_Prod1 1-1,true,914,1,1,286,1,0,infpu013335,0
1519057992669,744,NoFileUpload N10_PE7046_US_Comp1,200,Thread Group_Prod1 1-1,true,910,1,1,744,1,0,infpu013335,244
1519057993420,1879,NoFileUpload N11_PE7046_IN_Comp1,200,Thread Group_Prod1 1-1,true,910,1,1,1879,1,0,infpu013335,0
1519057995325,756,NoFileUpload N12_PE7046_ZA_Comp2,200,Thread Group_Prod1 1-1,true,914,1,1,755,1,0,infpu013335,250
1519057996106,1028,NoFileUpload N13_PE7773_NUM_EMP is 7_Fix,200,Thread Group_Prod1 1-1,false,1099,1,1,1028,1,1,infpu013335,0
1519057997178,301,NoFileUpload N14_PE7773_NUM_EMP is 8.1_boundry is 8,200,Thread Group_Prod1 1-1,true,1105,1,1,300,1,0,infpu013335,0
1519057997506,1572,NoFileUpload N15_PE7773_NUM_EMP is 9_boundry is 8,200,Thread Group_Prod1 1-1,true,1099,1,1,1572,1,0,infpu013335,261
1519057999095,1595,FileUpload F9_PE5216_ImpactedbyComment,200,Thread Group_Prod1 1-1,true,1345,1,1,1594,1,0,infpu013335,0
1519058000715,777,NoFileUpload N16_PE7044_expression,200,Thread Group_Prod1 1-1,true,674,1,1,777,1,0,infpu013335,257
1519058001492,520,NoFileUpload N17_PE7044_range,200,Thread Group_Prod1 1-1,true,917,1,1,520,1,0,infpu013335,0
1519058002083,281,NoFileUpload N18_PE7044_rangeValidationRefTable,200,Thread Group_Prod1 1-1,true,912,1,1,281,1,0,infpu013335,0
1519058002397,275,NoFileUpload N19_PE7044_rangeValidationRefTable_dimensions,200,Thread Group_Prod1 1-1,true,942,1,1,275,1,0,infpu013335,0
1519058002680,1694,FileUpload F10_PE5691_1Record_Ignore,400,Thread Group_Prod1 1-1,false,327,1,1,1694,1,1,infpu013335,0
1519058004381,2117,FileUpload F11_PE5691_1Record_Ignore,400,Thread Group_Prod1 1-1,false,327,1,1,2117,1,1,infpu013335,252
1519058006515,1028,FileUpload F12_PE6027_Ref Table,200,Thread Group_Prod1 1-1,true,2193,1,1,1027,1,0,infpu013335,249
1519058007592,524,FileUpload F13_PE6030,200,Thread Group_Prod1 1-1,true,3289,1,1,524,1,0,infpu013335,0
1519058008167,257,NoFileUpload N20_PE7033,200,Thread Group_Prod1 1-1,true,910,1,1,257,1,0,infpu013335,0
1519058008424,287,NoFileUpload N21_PE7314,200,Thread Group_Prod1 1-1,true,771,1,1,287,1,0,infpu013335,0
1519058008738,2629,FileUpload F14_PE7071_1Record_Shuffle,200,Thread Group_Prod1 1-1,false,5782,1,1,2628,1,1,infpu013335,275
1519058011401,13738,FileUpload F15_PE7071_1Record,200,Thread Group_Prod1 1-1,true,5780,1,1,13738,1,0,infpu013335,271
1519058025178,10038,FileUpload F16_PE7071_1Record,200,Thread Group_Prod1 1-1,true,6381,1,1,10036,1,0,infpu013335,394
1519058035252,2820,FileUpload F17_PE7071_1Record,200,Thread Group_Prod1 1-1,true,4601,1,1,2820,1,0,infpu013335,249
1519058038088,2748,FileUpload F18_PE7611,200,Thread Group_Prod1 1-1,true,1989,1,1,2747,1,0,infpu013335,291
1519058040851,2704,FileUpload F19_PE7611,200,Thread Group_Prod1 1-1,true,2070,1,1,2704,1,0,infpu013335,257
1519058043580,2675,FileUpload F20_PE7611,200,Thread Group_Prod1 1-1,true,1913,1,1,2675,1,0,infpu013335,252
1519058046274,2799,FileUpload F21_PE7611,200,Thread Group_Prod1 1-1,true,1989,1,1,2799,1,0,infpu013335,253
1519058049098,2724,FileUpload F22_PE7611,200,Thread Group_Prod1 1-1,true,2398,1,1,2723,1,0,infpu013335,254
1519058051830,2699,FileUpload F23_PE7611,200,Thread Group_Prod1 1-1,true,2275,1,1,2698,1,0,infpu013335,252
1519058054554,16033,FileUpload F24_PE7611,200,Thread Group_Prod1 1-1,true,2275,1,1,16033,1,0,infpu013335,250
1519058070602,10521,FileUpload F25_PE7611,200,Thread Group_Prod1 1-1,true,2163,1,1,10520,1,0,infpu013335,248
1519058081151,2656,FileUpload F26_PE7611,200,Thread Group_Prod1 1-1,true,2164,1,1,2655,1,0,infpu013335,247
1519058083831,2915,FileUpload F27_PE7611,200,Thread Group_Prod1 1-1,true,2119,1,1,2914,1,0,infpu013335,252
1519058086771,10263,FileUpload F28_6713CSV_SkipLastBlankRow,200,Thread Group_Prod1 1-1,true,1752,1,1,10262,1,0,infpu013335,289
1519058097036,796,FileUpload F29_6713CSV_SkipInitialRow,200,Thread Group_Prod1 1-1,true,1461,1,1,795,1,0,infpu013335,259
1519058097853,277,FileUpload F30_6713CSV_SkipMiddleBlankRows,200,Thread Group_Prod1 1-1,true,2055,1,1,276,1,0,infpu013335,0
1519058098151,545,FileUpload F31_6713Excel_SkipInitialRow,200,Thread Group_Prod1 1-1,true,1461,1,1,545,1,0,infpu013335,0
1519058098719,542,FileUpload F32_6713Excel_SkipLastBlankRow,200,Thread Group_Prod1 1-1,true,1752,1,1,541,1,0,infpu013335,0
1519058099287,1023,FileUpload F33_6713Excel_SkipMiddleRow,200,Thread Group_Prod1 1-1,true,2055,1,1,1022,1,0,infpu013335,250
1519058100327,309,NoFileUpload N22_PE7631_metaData,200,Thread Group_Prod1 1-1,true,604,1,1,308,1,0,infpu013335,0
1519058100645,253,NoFileUpload N23_PE7631_metaData,200,Thread Group_Prod1 1-1,true,604,1,1,253,1,0,infpu013335,0
1519058100917,255,NoFileUpload N24_PE7631_Autocorrect,200,Thread Group_Prod1 1-1,true,836,1,1,254,1,0,infpu013335,0
1519058101187,254,NoFileUpload N25_PE7631,200,Thread Group_Prod1 1-1,true,830,1,1,253,1,0,infpu013335,0
1519058101458,2443,NoFileUpload N26_7045RawJson_NonNumerciData,200,Thread Group_Prod1 1-1,true,846,1,1,2443,1,0,infpu013335,330
1519058103935,805,NoFileUpload N27_7045RawJson_SkipBlankCols,200,Thread Group_Prod1 1-1,true,771,1,1,805,1,0,infpu013335,267
1519058104764,273,NoFileUpload N28_7045RawJson_SkipNonNumericCols,200,Thread Group_Prod1 1-1,true,675,1,1,273,1,0,infpu013335,0
1519058105064,273,NoFileUpload N29_7045RawJson_WithDimesion,200,Thread Group_Prod1 1-1,true,853,1,1,272,1,0,infpu013335,0
1519058105373,310,NoFileUpload N30_7045RawJson_SingleNonBlankValue,200,Thread Group_Prod1 1-1,true,620,1,1,309,1,0,infpu013335,0
1519058105701,272,NoFileUpload N31_7045RawJson_WithOtherValidation,200,Thread Group_Prod1 1-1,true,903,1,1,272,1,0,infpu013335,0
1519058105992,892,FileUpload F34_PE7045_7045CSV_SimpleSequentialCheck,200,Thread Group_Prod1 1-1,true,2040,1,1,892,1,0,infpu013335,305
1519058106916,557,FileUpload F35_PE7045_7045Excel_SimpleSequentialCheck,200,Thread Group_Prod1 1-1,true,2028,1,1,556,1,0,infpu013335,0
1519058107499,279,FileUpload F36_PE7045_7045CSV_SkipBlankColumn,200,Thread Group_Prod1 1-1,true,1727,1,1,278,1,0,infpu013335,0
1519058107803,560,FileUpload F37_PE7045_7045EXCEL_SkipBlankColumn,200,Thread Group_Prod1 1-1,true,2070,1,1,559,1,0,infpu013335,0
1519058108390,772,FileUpload F38_PE7045_7045CSV_SkipNonNumericData,200,Thread Group_Prod1 1-1,true,1628,1,1,771,1,0,infpu013335,253
1519058109171,537,FileUpload F39_PE7045_7045EXCEL_SkipNonNumericData,200,Thread Group_Prod1 1-1,true,2584,1,1,536,1,0,infpu013335,0
1519058109735,261,NoFileUpload N32_PE7474_Testcase1,200,Thread Group_Prod1 1-1,true,905,1,1,261,1,0,infpu013335,0
1519058110021,263,NoFileUpload N33_PE7474_Testcase2,200,Thread Group_Prod1 1-1,true,903,1,1,263,1,0,infpu013335,0
1519058110304,258,NoFileUpload N34_PE7474_Testcase3,200,Thread Group_Prod1 1-1,true,815,1,1,258,1,0,infpu013335,0
1519058110590,790,NoFileUpload N35_PE7474_Testcase4,200,Thread Group_Prod1 1-1,true,881,1,1,790,1,0,infpu013335,259
1519058111400,276,NoFileUpload N36_PE7474_Testcase5,200,Thread Group_Prod1 1-1,true,905,1,1,275,1,0,infpu013335,0
1519058111700,268,NoFileUpload N37_PE7474_Testcase6,200,Thread Group_Prod1 1-1,true,895,1,1,268,1,0,infpu013335,0
1519058111992,4999,FileUpload F40_PE7474,200,Thread Group_Prod1 1-1,true,4224,1,1,4998,1,0,infpu013335,0
1519058117021,1064,NoFileUpload N38_PE7689_RefTable,200,Thread Group_Prod1 1-1,true,942,1,1,1064,1,0,infpu013335,264
1519058118114,858,NoFileUpload N39_PE7440_ISBLANK_ImpactedbyComment,200,Thread Group_Prod1 1-1,true,1070,1,1,858,1,0,infpu013335,0
1519058118993,276,NoFileUpload N40_PE7440_ISNOTBLANK_LENGTH_ImpactedbyComment,200,Thread Group_Prod1 1-1,true,959,1,1,276,1,0,infpu013335,0
1519058119289,916,FileUpload F41_PE5679_EqualToWithAllBlank_POSCODE=2,200,Thread Group_Prod1 1-1,false,2838,1,1,915,1,1,infpu013335,277
1519058120234,379,FileUpload F42_PE5679_3 Null string and 1 Blank_POSCODE=2,200,Thread Group_Prod1 1-1,false,2669,1,1,378,1,1,infpu013335,0
1519058120647,356,FileUpload F43_PE5679_2 Null String and 2 Blank_POSCODE=2,200,Thread Group_Prod1 1-1,true,2871,1,1,355,1,0,infpu013335,0
1519058121023,376,FileUpload F44_PE5679_1 Null String_1Data_2 Blank_POSCODE=2,200,Thread Group_Prod1 1-1,false,1746,1,1,376,1,1,infpu013335,0
1519058121424,848,FileUpload F45_PE5679_NoBlanksNoNullAllUnique_POSCODE=2,200,Thread Group_Prod1 1-1,false,3240,1,1,847,1,1,infpu013335,252
1519058122295,376,FileUpload F46_PE5679_3samedata_1Blank_POSCODE=2,200,Thread Group_Prod1 1-1,false,2662,1,1,375,1,1,infpu013335,0
1519058122694,353,FileUpload F47_PE5679_POSCODEGreaterThan2,200,Thread Group_Prod1 1-1,false,2841,1,1,352,1,1,infpu013335,0
1519058123073,345,FileUpload F48_PE5679_POSCODEGreaterThanEqualTo2,200,Thread Group_Prod1 1-1,false,1747,1,1,344,1,1,infpu013335,0
1519058123442,887,FileUpload F49_PE5679_LessThan,200,Thread Group_Prod1 1-1,false,2461,1,1,886,1,1,infpu013335,258
1519058124359,370,FileUpload F50_PE5679_LessThanEqualTo1,200,Thread Group_Prod1 1-1,false,2838,1,1,369,1,1,infpu013335,0
1519058124772,4410,FileUpload F52_PE7724_CSV_ref,200,Thread Group_Prod1 1-1,true,21369,1,1,4151,1,0,infpu013335,0
1519058129213,5133,FileUpload F52_PE7724_Excel_ValidationMsg,200,Thread Group_Prod1 1-1,false,18485,1,1,4878,1,1,infpu013335,255
1519058134358,2910,FileUpload F53_PE7056_uploadMultipleFile_TBC for strict or loose_Shuffle,200,Thread Group_Prod1 1-1,false,5155,1,1,2908,1,1,infpu013335,296
1519058137296,772,NoFileUpload N41_PE7056_validateAggregates_Fix,200,Thread Group_Prod1 1-1,false,807,1,1,772,1,1,infpu013335,255
1519058138087,261,NoFileUpload N42_7056_performDefaultActions_Correct as per new code,200,Thread Group_Prod1 1-1,true,674,1,1,260,1,0,infpu013335,0
1519058138369,518,NoFileUpload N43_7056_crossSectionChecks,200,Thread Group_Prod1 1-1,true,1316,1,1,518,1,0,infpu013335,0
1519058138913,261,NoFileUpload N44_PE7241_EmailValidation -withInvalidAndValidEmailIdInDimension,200,Thread Group_Prod1 1-1,true,858,1,1,261,1,0,infpu013335,0
1519058139202,262,NoFileUpload N45_PE7241_EmailValidation-withAllInvalidEmailIdInDimension,200,Thread Group_Prod1 1-1,true,884,1,1,261,1,0,infpu013335,0
1519058139488,759,NoFileUpload N46_PE7241_EmailValidation -withNullStringAndBlankEmailIdInDimension,200,Thread Group_Prod1 1-1,true,853,1,1,759,1,0,infpu013335,252
1519058140262,256,NoFileUpload N47_PE7241_EmailValidation_withAllBlankEmailIdInDimension,200,Thread Group_Prod1 1-1,true,832,1,1,256,1,0,infpu013335,0
1519058140527,257,NoFileUpload N48_PE7241_EmailValidation_withAllEmailIdAsNullStringInDimension,200,Thread Group_Prod1 1-1,true,848,1,1,257,1,0,infpu013335,0
1519058140796,256,NoFileUpload N49_PE7241_EmailValidation_withAllValidEmailIdInDimension,200,Thread Group_Prod1 1-1,true,881,1,1,256,1,0,infpu013335,0
1519058141067,256,NoFileUpload N50_PE7241_PhoneValidation_withAllBlankPhoneNumberInDimension,200,Thread Group_Prod1 1-1,true,795,1,1,256,1,0,infpu013335,0
1519058141350,256,NoFileUpload N51_PE7241_PhoneValidation_withAllInvalidPhoneNumberInDimension,200,Thread Group_Prod1 1-1,true,897,1,1,256,1,0,infpu013335,0
1519058141616,766,NoFileUpload N52_PE7241_PhoneValidation_withAllNullStringAndBlankPhoneNumberInDimension,200,Thread Group_Prod1 1-1,true,813,1,1,766,1,0,infpu013335,254
1519058142396,259,NoFileUpload N53_PE7241_PhoneValidation_withAllNullStringPhoneNumberInDimension,200,Thread Group_Prod1 1-1,true,836,1,1,259,1,0,infpu013335,0
1519058142668,260,NoFileUpload N54_PE7241_PhoneValidation_withAllValidPhoneNumberInDimension,200,Thread Group_Prod1 1-1,true,882,1,1,260,1,0,infpu013335,0
1519058142953,259,NoFileUpload N55_PE7241_PhoneValidation_withValidAndInvalidPhoneNumberInDimension,200,Thread Group_Prod1 1-1,true,872,1,1,259,1,0,infpu013335,0
1519058143236,259,NoFileUpload N56_PE7241_RequiredValidation__withAllNullStringInDimension,200,Thread Group_Prod1 1-1,true,875,1,1,259,1,0,infpu013335,0
1519058143510,258,NoFileUpload N57_PE7241_RequiredValidation__withAllValidValuesInDimension,200,Thread Group_Prod1 1-1,true,858,1,1,258,1,0,infpu013335,0
1519058143777,768,NoFileUpload N58_PE7241_RequiredValidation_withAllblankValuesInDimension ,200,Thread Group_Prod1 1-1,true,877,1,1,767,1,0,infpu013335,259
1519058144581,258,"NoFileUpload N59_PE7241_RequiredValidation_WithNullString,BlankAndValuesInDimension",200,Thread Group_Prod1 1-1,true,889,1,1,257,1,0,infpu013335,0
1519058144855,258,NoFileUpload N60_PE7241_RequiredValidation_WithNullStringlAndBlankInDimension,200,Thread Group_Prod1 1-1,true,878,1,1,258,1,0,infpu013335,0
1519058145131,257,NoFileUpload N61_PE7241_RequiredValidation_WithValidAndInvalidValue,200,Thread Group_Prod1 1-1,true,882,1,1,257,1,0,infpu013335,0
1519058145395,257,NoFileUpload N62_PE7241_CheckBoxes_UploadMultipleFile,200,Thread Group_Prod1 1-1,true,809,1,1,257,1,0,infpu013335,0
1519058145660,257,NoFileUpload N63_PE7241_Dimension_CrossSection,200,Thread Group_Prod1 1-1,true,873,1,1,257,1,0,infpu013335,0
1519058145925,781,NoFileUpload N64_PE7241_MDA_Dimension,200,Thread Group_Prod1 1-1,true,859,1,1,781,1,0,infpu013335,273
1519058146729,2658,FileUpload F54_PE-7257_AllValidDateAndDoubleValue(Positive scenario),200,Thread Group_Prod1 1-1,true,22950,1,1,2405,1,0,infpu013335,0
1519058149387,3405,FileUpload F55_PE-7257_AllValidAndInvalidDateAndDoubleValue(Negative scenario),200,Thread Group_Prod1 1-1,true,25925,1,1,3149,1,0,infpu013335,253
1519058152792,1010,NoFileUpload N65_PE7506_crosssection_with multiple combination for LPALL_399A,200,Thread Group_Prod1 1-1,true,1319,1,1,1010,1,0,infpu013335,250
1519058153832,1130,NoFileUpload N66_PE7506_crosssection_with 3 Dimensions for LPALL_399A,200,Thread Group_Prod1 1-1,true,1264,1,1,1129,1,0,infpu013335,0
1519058154991,1015,"NoFileUpload N67_PE7506_crosssection_13LATAM_01"": ""Y""",200,Thread Group_Prod1 1-1,true,1235,1,1,1015,1,0,infpu013335,252
1519058156018,261,"NoFileUpload N68_PE7506_crosssection_ EE_group_13LATAM_01"": ""N""",200,Thread Group_Prod1 1-1,true,1065,1,1,261,1,0,infpu013335,0
1519058156289,260,NoFileUpload N69_PE7506_crosssection_when  EE_group_13LATAM is not present,200,Thread Group_Prod1 1-1,true,1032,1,1,260,1,0,infpu013335,0
1519058156558,261,NoFileUpload N70_PE7506_crosssection_with Dimension for LPALL_399A,200,Thread Group_Prod1 1-1,true,1316,1,1,261,1,0,infpu013335,0
1519058156836,261,NoFileUpload N71_PE7506_crosssection_with Dimension for LPALL_399A 1 as Y others as N,200,Thread Group_Prod1 1-1,true,1264,1,1,261,1,0,infpu013335,0
1519058157126,1129,FileUpload F56_PE5415_MultiSheetSuccess,200,Thread Group_Prod1 1-1,true,3621,1,1,1128,1,0,infpu013335,283
1519058158283,617,FileUpload F57_PE5415_MultiSheetBadRequest_Ignore,400,Thread Group_Prod1 1-1,false,327,1,1,617,1,1,infpu013335,0
1519058158901,663,FileUpload F58_PE5415_MultiSheetCorrectRequest,200,Thread Group_Prod1 1-1,true,3494,1,1,663,1,0,infpu013335,0
1519058159591,1033,FileUpload F59_PE5415_Step1SingleSheetBadReq_Ignore,422,Thread Group_Prod1 1-1,false,1282,1,1,1033,1,1,infpu013335,252
1519058160631,556,FileUpload F60_PE5415_Step1SingleSheetCorrectReq,200,Thread Group_Prod1 1-1,true,4665,1,1,555,1,0,infpu013335,0
1519058161197,331,FileUpload F61_PE5415_Step3MappingCompanyJson,200,Thread Group_Prod1 1-1,true,1611,1,1,331,1,0,infpu013335,0
1519058161542,526,FileUpload F62_PE5415_Step3MappingCompanyExcel,200,Thread Group_Prod1 1-1,true,1625,1,1,526,1,0,infpu013335,0
1519058162086,1039,FileUpload F63_PE5415_Step3MappingColumnExcel,200,Thread Group_Prod1 1-1,true,4466,1,1,1038,1,0,infpu013335,269
1519058163154,309,FileUpload F64_PE5415_Step3MappingColumnJson,200,Thread Group_Prod1 1-1,true,4418,1,1,308,1,0,infpu013335,0
1519058163491,281,FileUpload F65_PE5415_Step3MappingColumnJsonWithoutCountry,200,Thread Group_Prod1 1-1,true,2131,1,1,281,1,0,infpu013335,0
1519058163780,263,FileUpload F66_PE5415_Step3MappingColumnJsonWithCountry,200,Thread Group_Prod1 1-1,true,1611,1,1,262,1,0,infpu013335,0
1519058164066,4873,FileUpload F67_PE8315_Fix,200,Thread Group_Prod1 1-1,false,34221,1,1,4623,1,1,infpu013335,0
1519058168978,4355,FileUpload F68_PE8037_Fix,200,Thread Group_Prod1 1-1,false,2156,1,1,4355,1,1,infpu013335,331
1519058173356,1229,NoFileUpload N72_ PE5668 T1,200,Thread Group_Prod1 1-1,true,702,1,1,1229,1,0,infpu013335,245
1519058174610,250,NoFileUpload N80_PE7989_Req_NonNumericData_withAllwrongcolumn_MDA,200,Thread Group_Prod1 1-1,true,678,1,1,250,1,0,infpu013335,0
1519058174875,256,NoFileUpload N81_PE7989_Req_NonNumericData_withAllrightcolumn_MDA,200,Thread Group_Prod1 1-1,true,846,1,1,256,1,0,infpu013335,0
1519058175155,252,NoFileUpload N82_PE7989_Req_NonNumericData_with1wrongcolumn_MDA,200,Thread Group_Prod1 1-1,true,849,1,1,252,1,0,infpu013335,0
1519058175429,762,NoFileUpload N83_PE7989_uploadMultipleFile,200,Thread Group_Prod1 1-1,true,835,1,1,762,1,0,infpu013335,252
1519058176216,260,NoFileUpload N84_400 and 500 Error_crossSectionChecks,200,Thread Group_Prod1 1-1,true,619,1,1,260,1,0,infpu013335,0
1519058176506,257,NoFileUpload N85_400 and 500 Error_crossSectionChecks,200,Thread Group_Prod1 1-1,true,648,1,1,257,1,0,infpu013335,0
1519058176778,259,NoFileUpload N86_400 and 500 Error_crossSectionChecks,200,Thread Group_Prod1 1-1,true,647,1,1,259,1,0,infpu013335,0
1519058177057,258,NoFileUpload N87_400 and 500 Error_crossSectionChecks,200,Thread Group_Prod1 1-1,true,501,1,1,258,1,0,infpu013335,0
1519058177338,258,NoFileUpload N88_400 and 500 Error_crossSectionChecks,200,Thread Group_Prod1 1-1,true,619,1,1,258,1,0,infpu013335,0
1519058177617,1054,NoFileUpload N89_PE8186_to Add assertion,200,Thread Group_Prod1 1-1,true,944,1,1,1054,1,0,infpu013335,263
1519058178699,269,NoFileUpload N90_PE8032_SyntaxError1_Fix,200,Thread Group_Prod1 1-1,false,674,1,1,268,1,1,infpu013335,0
1519058179005,268,NoFileUpload N91_PE8032_SyntaxError2_Fix,200,Thread Group_Prod1 1-1,false,674,1,1,268,1,1,infpu013335,0
1519058179309,267,NoFileUpload N92_PE8032_InvalidColumn,200,Thread Group_Prod1 1-1,true,758,1,1,267,1,0,infpu013335,0
1519058179590,266,NoFileUpload N93_PE7771_Exp,200,Thread Group_Prod1 1-1,true,674,1,1,266,1,0,infpu013335,0
1519058179898,1014,NoFileUpload N94_PE7771_Range,200,Thread Group_Prod1 1-1,true,917,1,1,1013,1,0,infpu013335,252
1519058180930,44880,NoFileUpload N94_PE7771_Added Scenario,Non HTTP response code: java.net.SocketTimeoutException,Thread Group_Prod1 1-1,true,2683,1,1,0,1,0,infpu013335,0
1519058225870,1052,NoFileUpload N95_PE8269 and 8397_CSC_MDA_ClearValue_Fix,200,Thread Group_Prod1 1-1,false,582,1,1,1052,1,1,infpu013335,264
1519058226929,1429,NoFileUpload N96_PE8269 and 8397_CSC_OtherThanClearValue,200,Thread Group_Prod1 1-1,true,794,1,1,1429,1,0,infpu013335,0
1519058228374,2913,NoFileUpload N97_PE8269 and 8397_UMF_NonMDA,200,Thread Group_Prod1 1-1,true,835,1,1,2913,1,0,infpu013335,245
1519058231308,2625,NoFileUpload N98_PE8269 and 8397_PDA_MDA_ClearValue_Fix,200,Thread Group_Prod1 1-1,false,576,1,1,2625,1,1,infpu013335,249
1519058233957,1003,NoFileUpload N99_PE8269 and 8397_PDA_OtherThanClearValue,200,Thread Group_Prod1 1-1,true,791,1,1,1003,1,0,infpu013335,251
1519058234982,6431,FileUpload F69_PE8584_Null Issue ,400,Thread Group_Prod1 1-1,false,389,1,1,6431,1,1,infpu013335,0
1519058241432,2862,FileUpload F70_PE8584,200,Thread Group_Prod1 1-1,false,16701,1,1,2614,1,1,infpu013335,248
1519058244307,782,FileUpload F71_PE8584,400,Thread Group_Prod1 1-1,false,389,1,1,782,1,1,infpu013335,254
1519058245113,288,FileUpload F72_PE8584,400,Thread Group_Prod1 1-1,false,389,1,1,288,1,1,infpu013335,0
1519058245420,7765,FileUpload F72_PE8584,400,Thread Group_Prod1 1-1,false,389,1,1,7765,1,1,infpu013335,0
1519058253216,12773,FileUpload F72_PE8584,400,Thread Group_Prod1 1-1,false,389,1,1,12772,1,1,infpu013335,263
