timeStamp,elapsed,label,responseCode,threadName,success,bytes,grpThreads,allThreads,Latency,SampleCount,ErrorCount,Hostname,Connect
1520430049133,3785,FileUpload F1_PE-8157_Ignore,200,Thread Group_Prod1 1-1,false,6260,1,1,3783,1,1,INFPU07042,460
1520430053662,1071,FileUpload F1_PE-8110_ErrorCell,200,Thread Group_Prod1 1-1,true,1571,1,1,1071,1,0,INFPU07042,244
1520430054823,3274,FileUpload F2_PE-8110_ErrorCell_Ignore,422,Thread Group_Prod1 1-1,false,650880,1,1,1653,1,1,INFPU07042,0
1520430058192,2337,FileUpload F3_PE-8110_ErrorCell_Ignore,400,Thread Group_Prod1 1-1,false,385,1,1,2337,1,1,INFPU07042,235
1520430060561,799,FileUpload F4_PE-5678_SequentialWithOtherValidations,200,Thread Group_Prod1 1-1,true,5471,1,1,794,1,0,INFPU07042,255
1520430061405,363,NoFileUpload N1_PE-5678_LOOK_UP_CHECK1,200,Thread Group_Prod1 1-1,true,1072,1,1,314,1,0,INFPU07042,0
1520430061820,281,NoFileUpload N1_PE-5678_SequentialWithOtherValidations,200,Thread Group_Prod1 1-1,true,994,1,1,281,1,0,INFPU07042,0
1520430062151,275,NoFileUpload N2_PE-5678_SequentialWithOtherValidations,200,Thread Group_Prod1 1-1,true,959,1,1,275,1,0,INFPU07042,0
1520430062475,1076,"NoFileUpload_Null Validation_crossSectionChecks_LPALL_566 is """"",200,Thread Group_Prod1 1-1,true,6764,1,1,1074,1,0,INFPU07042,0
1520430063599,1952,NoFileUpload_Null Validation_crossSectionChecks_LPALL_566 is null,200,Thread Group_Prod1 1-1,true,6760,1,1,1951,1,0,INFPU07042,236
1520430065611,1941,"NoFileUpload_Null Validation_crossSectionChecks_LPALL_566 is ""null""",200,Thread Group_Prod1 1-1,true,6903,1,1,1940,1,0,INFPU07042,242
1520430067589,2038,"NoFileUpload_Null Validation_crossSectionChecks_LPALL_566 is ""   """,200,Thread Group_Prod1 1-1,true,6767,1,1,2034,1,0,INFPU07042,0
1520430069670,1042,NoFileUpload N3_PE-7172MDA,200,Thread Group_Prod1 1-1,true,664,1,1,1042,1,0,INFPU07042,256
1520430070775,398,FileUpload F5_PE7172_Fix,200,Thread Group_Prod1 1-1,false,4477,1,1,393,1,1,INFPU07042,0
1520430071215,316,NoFileUpload N4_PE-8032MDA,200,Thread Group_Prod1 1-1,true,664,1,1,316,1,0,INFPU07042,0
1520430071569,786,NoFileUpload N5_PE-8070,200,Thread Group_Prod1 1-1,true,881,1,1,784,1,0,INFPU07042,0
1520430072377,1306,NoFileUpload N73_PE5668 T2_Temp,200,Thread Group_Prod1 1-1,true,614,1,1,1305,1,0,INFPU07042,252
1520430073736,399,NoFileUpload N74_PE5668 T3_Temp,200,Thread Group_Prod1 1-1,true,753,1,1,398,1,0,INFPU07042,0
1520430074177,401,NoFileUpload N75_PE5668 T4_Temp,200,Thread Group_Prod1 1-1,true,706,1,1,400,1,0,INFPU07042,0
1520430074619,1286,NoFileUpload N76_PE5668 T5_Temp,200,Thread Group_Prod1 1-1,true,720,1,1,1285,1,0,INFPU07042,241
1520430075946,392,NoFileUpload N78_PE5668 T7_Temp,200,Thread Group_Prod1 1-1,true,705,1,1,392,1,0,INFPU07042,0
1520430076373,391,NoFileUpload N79_PE5668 T8_Temp,200,Thread Group_Prod1 1-1,true,607,1,1,391,1,0,INFPU07042,0
1520430076803,2320,FileUpload F6_PE-7257_US_CSV_Shuffle,200,Thread Group_Prod1 1-1,false,4161,1,1,2317,1,1,INFPU07042,256
1520430079171,1888,FileUpload F7_PE-7257_US_Excel_Shuffle,200,Thread Group_Prod1 1-1,false,8117,1,1,1881,1,1,INFPU07042,254
1520430081107,964,NoFileUpload N6_PE7978,200,Thread Group_Prod1 1-1,true,6632,1,1,962,1,0,INFPU07042,0
1520430082118,539,NoFileUpload N7_PE7954,200,Thread Group_Prod1 1-1,true,732,1,1,538,1,0,INFPU07042,261
1520430082699,856,NoFileUpload N77_PE5668 T6,200,Thread Group_Prod1 1-1,true,716,1,1,856,1,0,INFPU07042,0
1520430083591,286,FileUpload F8_PE7999_Ignore since files are identical,422,Thread Group_Prod1 1-1,false,1282,1,1,286,1,1,INFPU07042,0
1520430083901,400,NoFileUpload N8_ PE7795,200,Thread Group_Prod1 1-1,true,717,1,1,400,1,0,INFPU07042,0
1520430084329,733,NoFileUpload N9_PE7046_AU_Comp2,200,Thread Group_Prod1 1-1,true,914,1,1,732,1,0,INFPU07042,235
1520430085091,277,NoFileUpload N10_PE7046_US_Comp1,200,Thread Group_Prod1 1-1,true,910,1,1,277,1,0,INFPU07042,0
1520430085402,270,NoFileUpload N11_PE7046_IN_Comp1,200,Thread Group_Prod1 1-1,true,910,1,1,269,1,0,INFPU07042,0
1520430085713,268,NoFileUpload N12_PE7046_ZA_Comp2,200,Thread Group_Prod1 1-1,true,914,1,1,268,1,0,INFPU07042,0
1520430086025,801,NoFileUpload N13_PE7773_NUM_EMP is 7_Fix,200,Thread Group_Prod1 1-1,false,1099,1,1,800,1,1,INFPU07042,0
1520430086903,1606,NoFileUpload N14_PE7773_NUM_EMP is 8.1_boundry is 8,200,Thread Group_Prod1 1-1,true,1100,1,1,1606,1,0,INFPU07042,232
1520430088553,678,NoFileUpload N15_PE7773_NUM_EMP is 9_boundry is 8,200,Thread Group_Prod1 1-1,true,1099,1,1,678,1,0,INFPU07042,0
1520430089276,752,FileUpload F9_PE5216_ImpactedbyComment,200,Thread Group_Prod1 1-1,false,1356,1,1,751,1,1,INFPU07042,241
1520430090074,272,NoFileUpload N16_PE7044_expression,200,Thread Group_Prod1 1-1,true,674,1,1,271,1,0,INFPU07042,0
1520430090348,300,NoFileUpload N17_PE7044_range,200,Thread Group_Prod1 1-1,true,917,1,1,300,1,0,INFPU07042,0
1520430090726,296,NoFileUpload N18_PE7044_rangeValidationRefTable,200,Thread Group_Prod1 1-1,true,912,1,1,296,1,0,INFPU07042,0
1520430091052,299,NoFileUpload N19_PE7044_rangeValidationRefTable_dimensions,200,Thread Group_Prod1 1-1,true,942,1,1,299,1,0,INFPU07042,0
1520430091388,2145,FileUpload F10_PE5691_1Record_Ignore,400,Thread Group_Prod1 1-1,false,327,1,1,2145,1,1,INFPU07042,242
1520430093566,2110,FileUpload F11_PE5691_1Record_Ignore,400,Thread Group_Prod1 1-1,false,327,1,1,2109,1,1,INFPU07042,244
1520430095712,1066,FileUpload F12_PE6027_Ref Table,200,Thread Group_Prod1 1-1,true,2193,1,1,1066,1,0,INFPU07042,244
1520430096855,1326,FileUpload F13_PE6030,200,Thread Group_Prod1 1-1,true,3289,1,1,1325,1,0,INFPU07042,0
1520430098263,792,NoFileUpload N20_PE7033,200,Thread Group_Prod1 1-1,true,910,1,1,791,1,0,INFPU07042,253
1520430099059,287,NoFileUpload N21_PE7314,200,Thread Group_Prod1 1-1,true,771,1,1,287,1,0,INFPU07042,0
1520430099404,1421,FileUpload F14_PE7071_1Record_Shuffle,200,Thread Group_Prod1 1-1,false,4225,1,1,1419,1,1,INFPU07042,0
1520430100866,2461,FileUpload F15_PE7071_1Record,200,Thread Group_Prod1 1-1,false,4749,1,1,2454,1,1,INFPU07042,256
1520430103385,1991,FileUpload F16_PE7071_1Record,200,Thread Group_Prod1 1-1,false,4225,1,1,1989,1,1,INFPU07042,254
1520430105397,1908,FileUpload F17_PE7071_1Record,400,Thread Group_Prod1 1-1,false,365,1,1,1908,1,1,INFPU07042,239
1520430107341,1170,FileUpload F18_PE7611,200,Thread Group_Prod1 1-1,false,1989,1,1,1170,1,1,INFPU07042,0
1520430108549,2360,FileUpload F19_PE7611,200,Thread Group_Prod1 1-1,false,1790,1,1,2360,1,1,INFPU07042,260
1520430110952,2286,FileUpload F20_PE7611,200,Thread Group_Prod1 1-1,true,1913,1,1,2285,1,0,INFPU07042,253
1520430113291,2132,FileUpload F21_PE7611,200,Thread Group_Prod1 1-1,true,1989,1,1,2132,1,0,INFPU07042,378
1520430115458,2276,FileUpload F22_PE7611,200,Thread Group_Prod1 1-1,false,2118,1,1,2276,1,1,INFPU07042,250
1520430117773,1945,FileUpload F23_PE7611,200,Thread Group_Prod1 1-1,false,1995,1,1,1944,1,1,INFPU07042,249
1520430119766,2195,FileUpload F24_PE7611,200,Thread Group_Prod1 1-1,false,1995,1,1,2195,1,1,INFPU07042,240
1520430122002,1764,FileUpload F25_PE7611,200,Thread Group_Prod1 1-1,false,2165,1,1,1764,1,1,INFPU07042,225
1520430123794,1463,FileUpload F26_PE7611,200,Thread Group_Prod1 1-1,false,1884,1,1,1463,1,1,INFPU07042,0
1520430125301,1974,FileUpload F27_PE7611,200,Thread Group_Prod1 1-1,true,2173,1,1,1973,1,0,INFPU07042,260
1520430127310,761,FileUpload F28_6713CSV_SkipLastBlankRow,200,Thread Group_Prod1 1-1,true,1752,1,1,761,1,0,INFPU07042,242
1520430128072,276,FileUpload F29_6713CSV_SkipInitialRow,200,Thread Group_Prod1 1-1,true,1461,1,1,276,1,0,INFPU07042,0
1520430128376,291,FileUpload F30_6713CSV_SkipMiddleBlankRows,200,Thread Group_Prod1 1-1,true,2055,1,1,291,1,0,INFPU07042,0
1520430128699,533,FileUpload F31_6713Excel_SkipInitialRow,200,Thread Group_Prod1 1-1,true,1461,1,1,533,1,0,INFPU07042,0
1520430129262,517,FileUpload F32_6713Excel_SkipLastBlankRow,200,Thread Group_Prod1 1-1,true,1752,1,1,517,1,0,INFPU07042,0
1520430129818,1104,FileUpload F33_6713Excel_SkipMiddleRow,200,Thread Group_Prod1 1-1,true,2055,1,1,1104,1,0,INFPU07042,264
1520430130963,290,NoFileUpload N22_PE7631_metaData,200,Thread Group_Prod1 1-1,true,609,1,1,290,1,0,INFPU07042,0
1520430131289,287,NoFileUpload N23_PE7631_metaData,200,Thread Group_Prod1 1-1,true,604,1,1,287,1,0,INFPU07042,0
1520430131596,290,NoFileUpload N24_PE7631_Autocorrect,200,Thread Group_Prod1 1-1,true,836,1,1,290,1,0,INFPU07042,0
1520430131921,751,NoFileUpload N25_PE7631,200,Thread Group_Prod1 1-1,true,830,1,1,751,1,0,INFPU07042,243
1520430132708,290,NoFileUpload N26_7045RawJson_NonNumerciData,200,Thread Group_Prod1 1-1,true,846,1,1,290,1,0,INFPU07042,0
1520430133040,277,NoFileUpload N27_7045RawJson_SkipBlankCols,200,Thread Group_Prod1 1-1,true,771,1,1,277,1,0,INFPU07042,0
1520430133356,285,NoFileUpload N28_7045RawJson_SkipNonNumericCols,200,Thread Group_Prod1 1-1,true,675,1,1,285,1,0,INFPU07042,0
1520430133683,296,NoFileUpload N29_7045RawJson_WithDimesion,200,Thread Group_Prod1 1-1,true,853,1,1,296,1,0,INFPU07042,0
1520430134039,795,NoFileUpload N30_7045RawJson_SingleNonBlankValue,200,Thread Group_Prod1 1-1,true,615,1,1,795,1,0,INFPU07042,258
1520430134869,305,NoFileUpload N31_7045RawJson_WithOtherValidation,200,Thread Group_Prod1 1-1,true,903,1,1,304,1,0,INFPU07042,0
1520430135207,354,FileUpload F34_PE7045_7045CSV_SimpleSequentialCheck,200,Thread Group_Prod1 1-1,true,2040,1,1,354,1,0,INFPU07042,0
1520430135594,594,FileUpload F35_PE7045_7045Excel_SimpleSequentialCheck,200,Thread Group_Prod1 1-1,true,2028,1,1,593,1,0,INFPU07042,0
1520430136224,789,FileUpload F36_PE7045_7045CSV_SkipBlankColumn,200,Thread Group_Prod1 1-1,true,1727,1,1,787,1,0,INFPU07042,258
1520430137049,622,FileUpload F37_PE7045_7045EXCEL_SkipBlankColumn,200,Thread Group_Prod1 1-1,true,2070,1,1,622,1,0,INFPU07042,0
1520430137711,291,FileUpload F38_PE7045_7045CSV_SkipNonNumericData,200,Thread Group_Prod1 1-1,true,1628,1,1,291,1,0,INFPU07042,0
1520430138036,560,FileUpload F39_PE7045_7045EXCEL_SkipNonNumericData,200,Thread Group_Prod1 1-1,true,2584,1,1,560,1,0,INFPU07042,0
1520430138630,753,NoFileUpload N32_PE7474_Testcase1,200,Thread Group_Prod1 1-1,true,905,1,1,753,1,0,INFPU07042,241
1520430139412,275,NoFileUpload N33_PE7474_Testcase2,200,Thread Group_Prod1 1-1,true,903,1,1,275,1,0,INFPU07042,0
1520430139724,269,NoFileUpload N34_PE7474_Testcase3,200,Thread Group_Prod1 1-1,true,815,1,1,268,1,0,INFPU07042,0
1520430140022,276,NoFileUpload N35_PE7474_Testcase4,200,Thread Group_Prod1 1-1,true,881,1,1,276,1,0,INFPU07042,0
1520430140337,283,NoFileUpload N36_PE7474_Testcase5,200,Thread Group_Prod1 1-1,true,905,1,1,283,1,0,INFPU07042,0
1520430140645,795,NoFileUpload N37_PE7474_Testcase6,200,Thread Group_Prod1 1-1,true,895,1,1,795,1,0,INFPU07042,259
1520430141474,5939,FileUpload F40_PE7474,200,Thread Group_Prod1 1-1,true,4224,1,1,5935,1,0,INFPU07042,0
1520430147434,774,NoFileUpload N38_PE7689_RefTable,200,Thread Group_Prod1 1-1,true,942,1,1,773,1,0,INFPU07042,245
1520430148246,850,NoFileUpload N39_PE7440_ISBLANK_ImpactedbyComment,200,Thread Group_Prod1 1-1,true,1070,1,1,847,1,0,INFPU07042,0
1520430149107,531,NoFileUpload N40_PE7440_ISNOTBLANK_LENGTH_ImpactedbyComment,200,Thread Group_Prod1 1-1,true,954,1,1,531,1,0,INFPU07042,0
1520430149681,764,FileUpload F41_PE5679_EqualToWithAllBlank_POSCODE=2,200,Thread Group_Prod1 1-1,true,2838,1,1,764,1,0,INFPU07042,243
1520430150484,363,FileUpload F42_PE5679_3 Null string and 1 Blank_POSCODE=2,200,Thread Group_Prod1 1-1,false,2669,1,1,363,1,1,INFPU07042,0
1520430150888,288,FileUpload F43_PE5679_2 Null String and 2 Blank_POSCODE=2,200,Thread Group_Prod1 1-1,true,2871,1,1,286,1,0,INFPU07042,0
1520430151209,351,FileUpload F44_PE5679_1 Null String_1Data_2 Blank_POSCODE=2,200,Thread Group_Prod1 1-1,false,1746,1,1,350,1,1,INFPU07042,0
1520430151588,340,FileUpload F45_PE5679_NoBlanksNoNullAllUnique_POSCODE=2,200,Thread Group_Prod1 1-1,true,3240,1,1,340,1,0,INFPU07042,0
1520430151961,721,FileUpload F46_PE5679_3samedata_1Blank_POSCODE=2,200,Thread Group_Prod1 1-1,true,2662,1,1,721,1,0,INFPU07042,228
1520430152713,332,FileUpload F47_PE5679_POSCODEGreaterThan2,200,Thread Group_Prod1 1-1,false,2841,1,1,332,1,1,INFPU07042,0
1520430153089,272,FileUpload F48_PE5679_POSCODEGreaterThanEqualTo2,200,Thread Group_Prod1 1-1,true,1747,1,1,272,1,0,INFPU07042,0
1520430153394,340,FileUpload F49_PE5679_LessThan,200,Thread Group_Prod1 1-1,false,2461,1,1,340,1,1,INFPU07042,0
1520430153765,274,FileUpload F50_PE5679_LessThanEqualTo1,200,Thread Group_Prod1 1-1,true,2838,1,1,273,1,0,INFPU07042,0
1520430154073,3371,FileUpload F52_PE7724_CSV_ref,200,Thread Group_Prod1 1-1,true,21361,1,1,3108,1,0,INFPU07042,251
1520430157489,3602,FileUpload F52_PE7724_Excel_ValidationMsg,200,Thread Group_Prod1 1-1,false,18269,1,1,3359,1,1,INFPU07042,244
1520430161143,2410,FileUpload F53_PE7056_uploadMultipleFile_TBC for strict or loose_Shuffle,200,Thread Group_Prod1 1-1,false,4196,1,1,2408,1,1,INFPU07042,256
1520430163591,749,NoFileUpload N41_PE7056_validateAggregates_Fix,200,Thread Group_Prod1 1-1,false,807,1,1,749,1,1,INFPU07042,247
1520430164380,277,NoFileUpload N42_7056_performDefaultActions_Correct as per new code,200,Thread Group_Prod1 1-1,true,674,1,1,277,1,0,INFPU07042,0
1520430164716,537,NoFileUpload N43_7056_crossSectionChecks,200,Thread Group_Prod1 1-1,true,1316,1,1,537,1,0,INFPU07042,0
1520430165287,275,NoFileUpload N44_PE7241_EmailValidation -withInvalidAndValidEmailIdInDimension,200,Thread Group_Prod1 1-1,true,858,1,1,275,1,0,INFPU07042,0
1520430165589,278,NoFileUpload N45_PE7241_EmailValidation-withAllInvalidEmailIdInDimension,200,Thread Group_Prod1 1-1,true,884,1,1,278,1,0,INFPU07042,0
1520430165905,503,NoFileUpload N46_PE7241_EmailValidation -withNullStringAndBlankEmailIdInDimension,200,Thread Group_Prod1 1-1,true,858,1,1,503,1,0,INFPU07042,235
1520430166447,276,NoFileUpload N47_PE7241_EmailValidation_withAllBlankEmailIdInDimension,200,Thread Group_Prod1 1-1,true,832,1,1,276,1,0,INFPU07042,0
1520430166758,272,NoFileUpload N48_PE7241_EmailValidation_withAllEmailIdAsNullStringInDimension,200,Thread Group_Prod1 1-1,true,848,1,1,272,1,0,INFPU07042,0
1520430167041,257,NoFileUpload N49_PE7241_EmailValidation_withAllValidEmailIdInDimension,200,Thread Group_Prod1 1-1,true,876,1,1,256,1,0,INFPU07042,0
1520430167314,262,NoFileUpload N50_PE7241_PhoneValidation_withAllBlankPhoneNumberInDimension,200,Thread Group_Prod1 1-1,true,795,1,1,261,1,0,INFPU07042,0
1520430167598,257,NoFileUpload N51_PE7241_PhoneValidation_withAllInvalidPhoneNumberInDimension,200,Thread Group_Prod1 1-1,true,897,1,1,257,1,0,INFPU07042,0
1520430167893,292,NoFileUpload N52_PE7241_PhoneValidation_withAllNullStringAndBlankPhoneNumberInDimension,200,Thread Group_Prod1 1-1,true,813,1,1,292,1,0,INFPU07042,0
1520430168221,483,NoFileUpload N53_PE7241_PhoneValidation_withAllNullStringPhoneNumberInDimension,200,Thread Group_Prod1 1-1,true,836,1,1,483,1,0,INFPU07042,233
1520430168732,253,NoFileUpload N54_PE7241_PhoneValidation_withAllValidPhoneNumberInDimension,200,Thread Group_Prod1 1-1,true,879,1,1,251,1,0,INFPU07042,0
1520430169028,253,NoFileUpload N55_PE7241_PhoneValidation_withValidAndInvalidPhoneNumberInDimension,200,Thread Group_Prod1 1-1,true,872,1,1,253,1,0,INFPU07042,0
1520430169299,248,NoFileUpload N56_PE7241_RequiredValidation__withAllNullStringInDimension,200,Thread Group_Prod1 1-1,true,872,1,1,247,1,0,INFPU07042,0
1520430169575,255,NoFileUpload N57_PE7241_RequiredValidation__withAllValidValuesInDimension,200,Thread Group_Prod1 1-1,true,858,1,1,255,1,0,INFPU07042,0
1520430169859,254,NoFileUpload N58_PE7241_RequiredValidation_withAllblankValuesInDimension ,200,Thread Group_Prod1 1-1,true,869,1,1,253,1,0,INFPU07042,0
1520430170147,256,"NoFileUpload N59_PE7241_RequiredValidation_WithNullString,BlankAndValuesInDimension",200,Thread Group_Prod1 1-1,true,884,1,1,256,1,0,INFPU07042,0
1520430170442,516,NoFileUpload N60_PE7241_RequiredValidation_WithNullStringlAndBlankInDimension,200,Thread Group_Prod1 1-1,true,875,1,1,515,1,0,INFPU07042,249
1520430171002,266,NoFileUpload N61_PE7241_RequiredValidation_WithValidAndInvalidValue,200,Thread Group_Prod1 1-1,true,879,1,1,266,1,0,INFPU07042,0
1520430171305,261,NoFileUpload N62_PE7241_CheckBoxes_UploadMultipleFile,200,Thread Group_Prod1 1-1,true,805,1,1,260,1,0,INFPU07042,0
1520430171601,282,NoFileUpload N63_PE7241_Dimension_CrossSection,200,Thread Group_Prod1 1-1,true,870,1,1,281,1,0,INFPU07042,0
1520430171912,282,NoFileUpload N64_PE7241_MDA_Dimension,200,Thread Group_Prod1 1-1,true,857,1,1,281,1,0,INFPU07042,0
1520430172236,1438,FileUpload F54_PE-7257_AllValidDateAndDoubleValue(Positive scenario),200,Thread Group_Prod1 1-1,true,19628,1,1,1190,1,0,INFPU07042,0
1520430173676,2608,FileUpload F55_PE-7257_AllValidAndInvalidDateAndDoubleValue(Negative scenario),200,Thread Group_Prod1 1-1,true,18683,1,1,2353,1,0,INFPU07042,250
1520430176287,1022,NoFileUpload N65_PE7506_crosssection_with multiple combination for LPALL_399A,200,Thread Group_Prod1 1-1,true,1319,1,1,1022,1,0,INFPU07042,236
1520430177348,343,NoFileUpload N66_PE7506_crosssection_with 3 Dimensions for LPALL_399A,200,Thread Group_Prod1 1-1,true,1264,1,1,343,1,0,INFPU07042,0
1520430177732,366,"NoFileUpload N67_PE7506_crosssection_13LATAM_01"": ""Y""",200,Thread Group_Prod1 1-1,true,1235,1,1,366,1,0,INFPU07042,0
1520430178131,351,"NoFileUpload N68_PE7506_crosssection_ EE_group_13LATAM_01"": ""N""",200,Thread Group_Prod1 1-1,true,1060,1,1,350,1,0,INFPU07042,0
1520430178519,1353,NoFileUpload N69_PE7506_crosssection_when  EE_group_13LATAM is not present,200,Thread Group_Prod1 1-1,true,1032,1,1,1353,1,0,INFPU07042,401
1520430179914,402,NoFileUpload N70_PE7506_crosssection_with Dimension for LPALL_399A,200,Thread Group_Prod1 1-1,true,1316,1,1,402,1,0,INFPU07042,0
1520430180356,393,NoFileUpload N71_PE7506_crosssection_with Dimension for LPALL_399A 1 as Y others as N,200,Thread Group_Prod1 1-1,true,1264,1,1,392,1,0,INFPU07042,0
1520430180791,1252,FileUpload F56_PE5415_MultiSheetSuccess,200,Thread Group_Prod1 1-1,true,3621,1,1,1252,1,0,INFPU07042,288
1520430182083,612,FileUpload F57_PE5415_MultiSheetBadRequest_Ignore,400,Thread Group_Prod1 1-1,false,327,1,1,612,1,1,INFPU07042,0
1520430182697,643,FileUpload F58_PE5415_MultiSheetCorrectRequest,200,Thread Group_Prod1 1-1,true,3494,1,1,640,1,0,INFPU07042,0
1520430183372,1245,FileUpload F59_PE5415_Step1SingleSheetBadReq_Ignore,422,Thread Group_Prod1 1-1,false,1282,1,1,1245,1,1,INFPU07042,298
1520430184651,653,FileUpload F60_PE5415_Step1SingleSheetCorrectReq,200,Thread Group_Prod1 1-1,true,4665,1,1,651,1,0,INFPU07042,0
1520430185347,348,FileUpload F61_PE5415_Step3MappingCompanyJson,200,Thread Group_Prod1 1-1,true,1611,1,1,348,1,0,INFPU07042,0
1520430185731,1258,FileUpload F62_PE5415_Step3MappingCompanyExcel,200,Thread Group_Prod1 1-1,true,1625,1,1,1257,1,0,INFPU07042,291
1520430187021,666,FileUpload F63_PE5415_Step3MappingColumnExcel,200,Thread Group_Prod1 1-1,true,4466,1,1,656,1,0,INFPU07042,0
1520430187725,418,FileUpload F64_PE5415_Step3MappingColumnJson,200,Thread Group_Prod1 1-1,false,2585,1,1,417,1,1,INFPU07042,0
1520430188208,1196,FileUpload F65_PE5415_Step3MappingColumnJsonWithoutCountry,200,Thread Group_Prod1 1-1,true,2131,1,1,1196,1,0,INFPU07042,278
1520430189418,352,FileUpload F66_PE5415_Step3MappingColumnJsonWithCountry,200,Thread Group_Prod1 1-1,true,1611,1,1,352,1,0,INFPU07042,0
1520430189804,4032,FileUpload F67_PE8315_Fix,200,Thread Group_Prod1 1-1,false,38565,1,1,3458,1,1,INFPU07042,0
1520430193884,1475,FileUpload F68_PE8037_Fix,200,Thread Group_Prod1 1-1,false,2156,1,1,1474,1,1,INFPU07042,308
1520430195384,646,NoFileUpload N72_ PE5668 T1,200,Thread Group_Prod1 1-1,true,702,1,1,646,1,0,INFPU07042,0
1520430196063,918,NoFileUpload N80_PE7989_Req_NonNumericData_withAllwrongcolumn_MDA,200,Thread Group_Prod1 1-1,true,678,1,1,918,1,0,INFPU07042,298
1520430197017,337,NoFileUpload N81_PE7989_Req_NonNumericData_withAllrightcolumn_MDA,200,Thread Group_Prod1 1-1,true,846,1,1,337,1,0,INFPU07042,0
1520430197381,343,NoFileUpload N82_PE7989_Req_NonNumericData_with1wrongcolumn_MDA,200,Thread Group_Prod1 1-1,true,849,1,1,343,1,0,INFPU07042,0
1520430197755,343,NoFileUpload N83_PE7989_uploadMultipleFile,200,Thread Group_Prod1 1-1,true,835,1,1,343,1,0,INFPU07042,0
1520430198131,609,NoFileUpload N84_400 and 500 Error_crossSectionChecks,200,Thread Group_Prod1 1-1,true,619,1,1,609,1,0,INFPU07042,293
1520430198787,322,NoFileUpload N85_400 and 500 Error_crossSectionChecks,200,Thread Group_Prod1 1-1,true,648,1,1,322,1,0,INFPU07042,0
1520430199146,327,NoFileUpload N86_400 and 500 Error_crossSectionChecks,200,Thread Group_Prod1 1-1,true,647,1,1,327,1,0,INFPU07042,0
1520430199502,312,NoFileUpload N87_400 and 500 Error_crossSectionChecks,200,Thread Group_Prod1 1-1,true,501,1,1,312,1,0,INFPU07042,0
1520430199848,312,NoFileUpload N88_400 and 500 Error_crossSectionChecks,200,Thread Group_Prod1 1-1,true,619,1,1,312,1,0,INFPU07042,0
1520430200192,1213,NoFileUpload N89_PE8186_to Add assertion,200,Thread Group_Prod1 1-1,true,944,1,1,1213,1,0,INFPU07042,299
1520430201424,331,NoFileUpload N90_PE8032_SyntaxError1_Fix,200,Thread Group_Prod1 1-1,false,674,1,1,331,1,1,INFPU07042,0
1520430201803,326,NoFileUpload N91_PE8032_SyntaxError2_Fix,200,Thread Group_Prod1 1-1,false,674,1,1,326,1,1,INFPU07042,0
1520430202185,326,NoFileUpload N92_PE8032_InvalidColumn,200,Thread Group_Prod1 1-1,true,758,1,1,326,1,0,INFPU07042,0
1520430202556,902,NoFileUpload N93_PE7771_Exp,200,Thread Group_Prod1 1-1,true,674,1,1,902,1,0,INFPU07042,288
1520430203514,619,NoFileUpload N94_PE7771_Range,200,Thread Group_Prod1 1-1,true,917,1,1,619,1,0,INFPU07042,0
1520430204156,2105,NoFileUpload N94_PE7771_Added Scenario,200,Thread Group_Prod1 1-1,true,6106,1,1,2098,1,0,INFPU07042,0
1520430206301,1181,NoFileUpload N95_PE8269 and 8397_CSC_MDA_ClearValue_Fix,200,Thread Group_Prod1 1-1,false,582,1,1,1181,1,1,INFPU07042,282
1520430207494,365,NoFileUpload N96_PE8269 and 8397_CSC_OtherThanClearValue,200,Thread Group_Prod1 1-1,true,792,1,1,365,1,0,INFPU07042,0
1520430207897,361,NoFileUpload N97_PE8269 and 8397_UMF_NonMDA,200,Thread Group_Prod1 1-1,true,833,1,1,361,1,0,INFPU07042,0
1520430208304,1197,NoFileUpload N98_PE8269 and 8397_PDA_MDA_ClearValue_Fix,200,Thread Group_Prod1 1-1,false,576,1,1,1197,1,1,INFPU07042,287
1520430209543,365,NoFileUpload N99_PE8269 and 8397_PDA_OtherThanClearValue,200,Thread Group_Prod1 1-1,true,789,1,1,365,1,0,INFPU07042,0
1520430209948,7943,FileUpload F69_PE8584_Null Issue ,200,Thread Group_Prod1 1-1,true,14518,1,1,7658,1,0,INFPU07042,0
1520430217938,943,FileUpload F70_PE8584,200,Thread Group_Prod1 1-1,false,11458,1,1,932,1,1,INFPU07042,281
1520430218927,528,FileUpload F71_PE8584,200,Thread Group_Prod1 1-1,true,2020,1,1,527,1,0,INFPU07042,0
1520430219468,333,FileUpload F72_PE8584,200,Thread Group_Prod1 1-1,false,2034,1,1,333,1,1,INFPU07042,0
1520430219816,8860,FileUpload F73_PE8584,200,Thread Group_Prod1 1-1,true,14379,1,1,8846,1,0,INFPU07042,0
1520430228775,12980,FileUpload F74_PE8584,200,Thread Group_Prod1 1-1,false,14416,1,1,12665,1,1,INFPU07042,304
1520430241813,3389,FileUpload F75_PE8584,200,Thread Group_Prod1 1-1,true,18913,1,1,3095,1,0,INFPU07042,286
1520430245247,7515,FileUpload F76_PE8584,200,Thread Group_Prod1 1-1,false,175013,1,1,6279,1,1,INFPU07042,302
1520430252832,4163,FileUpload F77_PE8584,200,Thread Group_Prod1 1-1,false,53778,1,1,3607,1,1,INFPU07042,366
1520430257042,1172,FileUpload F78_PE8584,200,Thread Group_Prod1 1-1,true,6286,1,1,1172,1,0,INFPU07042,251
1520430258252,297,NoFileUpload N100_PE8916,200,Thread Group_Prod1 1-1,false,855,1,1,296,1,1,INFPU07042,0
1520430258607,3756,FileUpload F79_PE8951_P1,200,Thread Group_Prod1 1-1,true,34583,1,1,3225,1,0,INFPU07042,0
1520430262364,3542,FileUpload F80_PE8951_P2,200,Thread Group_Prod1 1-1,true,30936,1,1,3267,1,0,INFPU07042,254
1520430265919,3588,FileUpload F81_PE8951_P3,200,Thread Group_Prod1 1-1,true,30929,1,1,3305,1,0,INFPU07042,245
1520430269509,4259,FileUpload F82_PE8951_P4,200,Thread Group_Prod1 1-1,true,30843,1,1,3800,1,0,INFPU07042,243
1520430273769,3159,FileUpload F83_PE8951_N1,400,Thread Group_Prod1 1-1,true,389,1,1,3158,1,0,INFPU07042,244
1520430276929,3408,FileUpload F84_PE8951_N2,400,Thread Group_Prod1 1-1,true,389,1,1,3408,1,0,INFPU07042,356
1520430280338,3166,FileUpload F85_PE8951_N3,400,Thread Group_Prod1 1-1,true,388,1,1,3166,1,0,INFPU07042,242
1520430283517,3304,FileUpload F86_PE8951_N4,400,Thread Group_Prod1 1-1,true,388,1,1,3304,1,0,INFPU07042,254
1520430286824,3647,FileUpload F88_8976,200,Thread Group_Prod1 1-1,false,1577,1,1,3647,1,1,INFPU07042,248
1520430290473,3656,FileUpload F87_8976,422,Thread Group_Prod1 1-1,true,1187,1,1,3656,1,0,INFPU07042,245
