{
  "entities": [
    {
      "sectionStructure": {
         "columns": [
          {
            "code": "YOUR_EEID",
            "displayLabel": "Employee Identifier",
            "dataType": "int",
            "questionType": "integer",
            "validations": []
          },
          {
            "code": "ANNUAL_BASE",
            "displayLabel": "Organisation Job Title",
            "dataType": "int",
            "questionType": "text",
            "validations": [
              {
                "parameter": "",
                "expression": "ISBLANK(this.ANNUAL_BASE);",
                "clientInstructions": "Please provide Annual Base Salary",
                "errorType": "ERROR",
                "message": "Annual Base Salary is blank",
                "validationType": "expression",
                "_id": "59e91b14a811920015bcd533",
                "category": "input_data",
                "dependentColumns": []
              },
              {
                "parameter": "",
                "expression": "this.ANNUAL_BASE * 2;",
                "clientInstructions": "Please provide Annual Base Salary",
                "errorType": "AUTOCORRECT",
                "message": "Annual Base Salary is blank",
                "validationType": "expression",
                "_id": "59e91b14a811920015bcd533",
                "category": "input_data",
                "dependentColumns": []
              }
            ]
          },
          {
            "code": "email_address",
            "displayLabel": "Email address",
            "dataType": "boolean",
            "questionType": "boolean",
            "validations": [
              {
                "parameter": "",
                "expression": "this.email_address != true;",
                "clientInstructions": "Please provide Annual Base Salary",
                "errorType": "ERROR",
                "message": "Annual Base Salary is blank",
                "validationType": "expression",
                "_id": "59e91b14a811920015bcd533",
                "category": "input_data",
                "dependentColumns": []
              }
            ]
          },
          {
            "code": "phone_number",
            "displayLabel": "Phone number",
            "dataType": "date",
            "questionType": "text",
            "validations": [
              {
                "parameter": "",
                "expression": "ISBLANK(this.phone_number);",
                "clientInstructions": "Please provide Annual Base Salary",
                "errorType": "ERROR",
                "message": "Annual Base Salary is blank",
                "validationType": "expression",
                "_id": "59e91b14a811920015bcd533",
                "category": "input_data",
                "dependentColumns": []
              },
              {
                "parameter": "",
                "expression": "TO_DATE(this.phone_number,\"yyyy-MM-dd\");",
                "clientInstructions": "Please provide Annual Base Salary",
                "errorType": "AUTOCORRECT",
                "message": "Annual Base Salary is blank",
                "validationType": "expression",
                "_id": "59e91b14a811920015bcd533",
                "category": "input_data",
                "dependentColumns": []
              }
            ]
          },
          {
            "code": "POS_CODE",
            "displayLabel": "Employee Identifier",
            "dataType": "string",
            "questionType": "double",
            "validations": [
              {
                "parameter": "",
                "expression": "ISBLANK(this.POS_CODE);",
                "clientInstructions": "Please provide Annual Base Salary",
                "errorType": "ERROR",
                "message": "Annual Base Salary is blank",
                "validationType": "expression",
                "_id": "59e91b14a811920015bcd533",
                "category": "input_data",
                "dependentColumns": []
              }
            ]
          }
        ]
      },
      "otherSectionsData": {},
      "contextData": {
        "campaignId": "59ca2a66c1e15a565af88407",
        "companyId": "59c3eac0fc22fa6928d09aa4",
        "companyName": "Exadel",
        "sectionId": "pe3707Section",
        "grpCode": "",
        "cpyCode": "",
        "ctryCode": "BY",
        "orgSize": {
          "59c3eac0fc22fa6928d09aa4": null
        },
        "uniqueIdColumnCode": "YOUR_EEID",
        "industry": {
          "superSector": "CG",
          "sector": "101",
          "subSector": "2670"
        }
      }
    }
  ]
}