YOUR_EEID,POS_CODE,POS_TITLE,OLD_POSCODE,OLD_POSTITLE,LIBSPEC_FLAG1,LIBSPEC_FLAG2,LIBSPEC_FLAG3,YOUR_TITLE,YOUR_CODE,YOUR_LEVEL,YOUR_GRADE,EMP_026,POS_CLASS,EMP_032,EMP_034,EMP_036,EMP_037,EMP_038,EMP_039,EMP_043,EMP_044,EMP_049,EMP_054,EMP_055,EMP_061,EMP_096,EMP_099,EMP_100,EMP_116,EMP_117,EMP_118,EMP_119,EMP_122,EMP_123,HOURLY_RATE,EMP_129,EMP_134,EMP_136,EMP_233,EMP_239,EMP_236,EMP_238,EMP_234,EMP_273,EMP_240,EMP_244,EMP_242,EMP_114,EMP_260,EMP_261,EMP_278,EMP_279,EMP_280,EMP_281,EMP_282,EMP_283,EMP_284,EMP_285,EMP_290,SYSTEM_EXCLUDE_EMPLOYEE,CLIENT_EXCLUDE_EMPLOYEE
Employee identifier,Mercer benchmark code,Mercer position title,Previous year job code (for reference only),Previous year job title (for reference only),"Mercer Job Library specialty flags, 
level 1 (for specific jobs)
","Mercer Job Library specialty flags, 
level 2 (for specific financial jobs)
","Mercer Job Library specialty flags, 
level 3 (for specific financial jobs)",Job title within your organization,Internal job code ,Job level within your organization,Job grade within your organization ,Organization's  reports to position title,"IPE Position Class (current year) (if you do not have an IPE license, please leave blank)",Incumbent revenue (annual),Assets under management,Geographic scope of role,Year of birth,Year of hire,Year the employee started in this position,"Same incumbent, 12 months prior",Gender,Workplace postal/ZIP code ,Line of business (property & casualty insurance positions only),Market segment (property & casualty insurance positions only),Is this position unionized?,Is this position eligible for overtime pay? ,Most recent performance rating,Quality of position match,Discipline code (financial operations positions only),Fair Labor Standards Act (FLSA) status,Industry segment (consumer finance positions only),Sub-industry segment (consumer finance positions only),Pay type,Standard work week (hours),Hourly rate,Annual base salary (equivalent to full-time employment),"Salary range minimum, excluding broadband ranges","Salary range maximum, excluding broadband ranges",Short-term incentive (variable bonus) eligibility,"Short-term incentive (threshold), as percentage of base",Short-term incentive (target) as percentage of base salary,"Short-term incentive (maximum), as percentage of base",Short-term incentive (variable bonus) (actual),Short-term incentive status for non-receivers,Sales incentive eligibility,"Sales incentive (target), as percentage of base",Sales incentive amount (actual) (annual),Sales incentive status for non-receivers,Profit sharing plan eligibility,Profit sharing (actual),Is this employee eligible for a long-term incentive?,"Which long-term incentive plans does your organization offer? For multiple plans, separate them with a comma, without spaces. ",LTI Plan Award #1. Organization LTI Plan Identifier (identifiers provided on the LTI Plans section),LTI Plan Award #1. Number of granted Options/ Shares/ Performance Units or value of granted Cash Award,LTI Plan Award #2. Organization LTI Plan Identifier (identifiers provided on the LTI Plans section),LTI Plan Award #2. Number of granted Options/ Shares/ Performance Units or value of granted Cash Award,LTI Plan Award #3. Organization LTI Plan Identifier (identifiers provided on the LTI Plans section),LTI Plan Award #3. Number of granted Options/ Shares/ Performance Units or value of granted Cash Award,Stock/share ownership guidelines,System exclude employee,Client exclude employee
7917,INS.03.002.P30,Operations Executive,,,,,,"VP, Cust Service & Supp",USVCSS,,,Chief Ops Officer US/Zone,,,,In country,,2005,2015,Y,F,23233,,,,N,Exceeded expectations,,,Exempt,,,,,,,122400,183600,Y,6.30%,25.00%,50.00%,58779.6435,,N,,,,N,,,,,,,,,,,,
12257,INS.03.002.P30,Operations Division Director,,,,,,Dir Assistance Services,USDDIAS,,,"VP, Claims & Case Mgmt",,,,In country,,2008,2016,Y,F,23233,,,,N,Met expectations,,,Exempt,,,,,,,92600,138800,Y,5.00%,20.00%,40.00%,12235.374,,N,,,,N,,,,,,,,,,,,
15561,INS.03.002.P30,Operations Division Director,,,,,,"Dir, Customer Service",USDCSTSV,,,"VP, Cust Service & Supp",,,,In country,,2016,2016,Y,M,23233,,,,N,Exceeded expectations,,,Exempt,,,,,,,92600,138800,Y,5.00%,20.00%,40.00%,28942.2805,,N,,,,N,,,,,,,,,,,,
8383,INS.03.002.M20,Business Process Consultant,,,,,,Dir Systems Integration,USDDRSI,,,VP Organizational Mgmt,,,,In country,,2007,2017,Y,M,23233,,,,N,Exceeded expectations,,,Exempt,,,,,,,106500,159700,Y,5.00%,20.00%,40.00%,25955.97,,N,,,,N,,,,,,,,,,,,
12874,INS.03.002.M20,Operations Analyst II,,,,,,Operations BI Analyst SR,USABISR,,,Dir Business Productivity,,,,In country,,2010,2015,Y,M,23233,,,,N,abcd,,,Exempt,,,,,,,60900,91300,Y,2.50%,10.00%,20.00%,15371.852,,N,,,,N,,,,,,,,,,,,
