YOUR_EEID,YOUR_TITLE,dependent1,dependent2,dependent3,eligibility
ID,Title, Dependent1,Dependent2,Dependent3,Eligibility
1,aaa,,,,Y
2,bbb,1,1,1,Y
3,ccc,,,1,Y
4,ddd,,,,N
5,eee,1,1,1,N
6,fff,,,1,N
7,ggg,,,0,N
8,hhh,,,,t
9,iii,,,0,d
10,jjj,0,,0,u
