{  
   "entities":[  
      {  
         "sectionStructure":{  
            "columns":[  
               {  
                  "code":"city",
                  "displayLabel":"CityName",
				  "dataType":"string",
                  "validations":[  
                     {  
                        "errorType":"ERROR",
                        "validationType":"expression",
                        "expression":"DECODE(LENGTH(this.city) > 0,true,false);",
                        "errorGroup":"Personal",
                        "message":"Length of Department"
                     }
                  ]
               },
               {   
                  "code":"COUNTRY_CODE",
                  "displayLabel":"COUNTRY_Name",
                  "dataType":"string",
				   "validations":[  
                     {  
                        "errorType":"ERROR",
                        "validationType":"expression",
                        "expression":"DECODE(LENGTH(this.COUNTRY_CODE) > 0,true,false);",
                        "errorGroup":"Personal",
                        "message":"Length of Department"
                     }
                  ]
               },
               {   
                  "code":"YOUR_EEID",
                  "displayLabel":"EmployeeID",
                  "dataType":"string",
				   "validations":[]
               },
               {   
                  "code":"CompanyNames",
                  "displayLabel":"CompayName",
                  "dataType":"string",
				   "validations":[]
               },
               {   
                  "code":"CountryName",
                  "displayLabel":"CountryName",
                  "dataType":"string",
				   "validations":[]
               }
            ]
         },
         
         "contextData":{  
            "uniqueIdColumnCode":"ID",
            "campaignId":"11111",
			"companyName":"Company1",
			"entityNameColumnCode":"city",
			 "ctryCode":"US",
            "sectionId":"22222",
            "grpCode":"3333",
            "cpyCode":"4444",
            "industry":{  
               "superSector":"CG",
               "sector":"100",
               "subSector":"101"
            },
            "orgSize":123
         }
      },
	  {  
         "sectionStructure":{  
            "columns":[  
               {  
                  "code":"city",
                  "displayLabel":"CityName",
				  "dataType":"string",
                  "validations":[  
                     {  
                        "errorType":"ERROR",
                        "validationType":"expression",
                        "expression":"DECODE(LENGTH(this.city) > 0,true,false);",
                        "errorGroup":"Personal",
                        "message":"Length of Department"
                     }
                  ]
               },
               {   
                  "code":"COUNTRY_CODE",
                  "displayLabel":"COUNTRY_Name",
                  "dataType":"string",
				   "validations":[  
                     {  
                        "errorType":"ERROR",
                        "validationType":"expression",
                        "expression":"DECODE(LENGTH(this.COUNTRY_CODE) > 0,true,false);",
                        "errorGroup":"Personal",
                        "message":"Length of Department"
                     }
					 ]
					 },
               {   
                  "code":"YOUR_EEID",
                  "displayLabel":"EmployeeID",
                  "dataType":"string",
				   "validations":[]
               },
               {   
                  "code":"CompanyNames",
                  "displayLabel":"CompayName",
                  "dataType":"string",
				   "validations":[]
               },
               {   
                  "code":"CountryName",
                  "displayLabel":"CountryName",
                  "dataType":"string",
				   "validations":[]
               }
                  ]
               },
         
         "contextData":{  
            "uniqueIdColumnCode":"ID",
            "campaignId":"11111",
			"companyName":"Company1",
			"entityNameColumnCode":"city",
			 "ctryCode":"PL",
            "sectionId":"22222",
            "grpCode":"3333",
            "cpyCode":"4444",
            "industry":{  
               "superSector":"CG",
               "sector":"100",
               "subSector":"101"
            },
            "orgSize":123
         }
      }
   ]
}